RRT | Iteracoes;TempoRRT;ComprimentoRRT;InimigosRRT;A* | Celulas;TempoA;Grafo;ComprimentoA;InimigosA;Leaf Size = 5;Numero maximo iteracoes = 30000;Distancia minima destino = 360[mm];Distancia avanco base = 360[mm];
1187;8.70642;14391;6427.86;84;1.34628;1.08371;12941.8;4417.98;
2008;14.4725;14732.5;6632.41;84;1.41408;1.03761;12941.8;4417.98;
718;6.69117;14337.3;6695.01;84;1.73851;1.23486;12941.8;4417.98;
1219;8.03608;14363.5;6515.38;84;1.41639;1.11211;12941.8;4417.98;
773;4.54861;14606.2;6514.89;84;1.15331;0.914422;12941.8;4417.98;
2766;9.90143;14626.6;6294.84;84;0.623844;0.50037;12941.8;4417.98;
1188;5.40671;14785.3;6210.08;84;0.642876;0.522081;12941.8;4417.98;
1103;3.70601;14541.4;6133.29;84;0.676018;0.542304;12941.8;4417.98;
912;7.62653;14419;6438.02;84;1.59054;1.29637;12941.8;4417.98;
1078;9.07205;14540.4;5942.2;84;2.29386;1.87756;12941.8;4417.98;
1598;8.21016;14502.8;6267.05;84;1.14192;0.912189;12941.8;4417.98;
1367;13.5813;14310.8;6643.33;84;3.39091;3.02169;12941.8;4417.98;
865;8.49275;14423;6847.68;84;1.64207;1.31273;12941.8;4417.98;
1184;11.0988;14487.2;6640.2;84;1.66683;1.33788;12941.8;4417.98;
654;6.73891;14521.3;6098.61;84;1.98682;1.61673;12941.8;4417.98;
967;8.53633;14611.5;6915.69;84;1.75453;1.43103;12941.8;4417.98;
423;1.00319;14468.3;6282.85;84;0.487032;0.39198;12941.8;4417.98;
857;8.30369;14511.7;5526.42;84;1.83358;1.50847;12941.8;4417.98;
731;3.32569;14462.9;6341.77;84;0.953595;0.778097;12941.8;4417.98;
970;10.7094;14510.7;6667.86;84;2.70956;2.12482;12941.8;4417.98;
990;6.20517;14407.7;6745.58;84;1.15299;0.927318;12941.8;4417.98;
2577;18.1381;14962.9;6681.83;84;1.79258;1.45117;12941.8;4417.98;
1004;6.30763;14731.4;6078.06;84;1.22144;0.984948;12941.8;4417.98;
1479;11.1809;14502.4;6145.92;84;1.71094;1.44965;12941.8;4417.98;
876;5.89172;14278.3;6556.58;84;1.27744;1.01891;12941.8;4417.98;
912;6.08429;14834.1;5465.19;84;1.292;1.03217;12941.8;4417.98;
1509;6.87307;14523.6;6596.03;84;0.938749;0.780086;12941.8;4417.98;
1158;5.72706;14632.8;6490.81;84;1.46446;1.31177;12941.8;4417.98;
2660;27.7749;14305;6240.96;84;2.17689;1.67215;12941.8;4417.98;
1071;3.81581;14636.2;6528.83;84;0.619238;0.495087;12941.8;4417.98;
800;9.80524;14449.7;5798.32;84;2.03053;1.57369;12941.8;4417.98;
1010;10.1522;14519.1;6170.2;84;2.11565;1.75134;12941.8;4417.98;
1749;12.3914;14474.5;5574.11;84;1.28773;1.02114;12941.8;4417.98;
1319;9.6079;14423.5;6441.62;84;1.38704;1.10801;12941.8;4417.98;
1093;8.16808;14544.7;5667.53;84;1.2523;1.00746;12941.8;4417.98;
2627;26.1005;14508.4;6547.99;84;1.73062;1.40587;12941.8;4417.98;
1131;2.86684;14963.3;6905.08;84;0.481145;0.386908;12941.8;4417.98;
1236;2.51518;13975.8;8369.21;84;0.371972;0.291318;12941.8;4417.98;
1299;8.68737;14656.6;6402.59;84;2.29646;1.86805;12941.8;4417.98;
775;8.54983;14358.1;6547.36;84;1.92825;1.56632;12941.8;4417.98;
762;4.98644;14572.3;6388.02;84;1.2987;1.02873;12941.8;4417.98;
939;10.3504;14487;6294.62;84;2.45336;1.77828;12941.8;4417.98;
874;9.86662;14488.3;6658.84;84;1.93452;1.5637;12941.8;4417.98;
1374;11.8718;14244.9;6390.25;84;1.39294;1.02938;12941.8;4417.98;
1752;9.52488;14661.8;6707.2;84;0.990801;0.775719;12941.8;4417.98;
1499;13.8262;14467.5;6621.15;84;4.11573;3.50875;12941.8;4417.98;
1294;2.62555;14508.9;5841;84;0.384257;0.307668;12941.8;4417.98;
3344;28.3925;14555.4;6183.72;84;1.94115;1.58105;12941.8;4417.98;
906;8.16373;14706.6;6404;84;1.85035;1.52714;12941.8;4417.98;
654;4.0344;14293.5;6461.81;84;1.28807;1.05848;12941.8;4417.98;
1080;7.08528;14840.1;5657.72;84;1.21215;0.963042;12941.8;4417.98;
691;7.95911;14736.9;6304.79;84;1.90519;1.49515;12941.8;4417.98;
1711;19.3786;14887.4;5509.89;84;2.0124;1.64003;12941.8;4417.98;
1497;10.8852;14364.9;6663.77;84;2.82022;2.45385;12941.8;4417.98;
989;8.87293;14391.7;6328.97;84;1.64745;1.321;12941.8;4417.98;
1328;13.5968;14265.6;6467.35;84;2.05962;1.69489;12941.8;4417.98;
1135;5.05438;14512;5943.81;84;0.781;0.613579;12941.8;4417.98;
1486;6.46036;14676.5;5968.83;84;0.793658;0.63789;12941.8;4417.98;
1354;16.5316;14664.1;5636.66;84;2.57691;2.07017;12941.8;4417.98;
1037;8.73247;14375.4;6494.94;84;1.20726;0.947084;12941.8;4417.98;
1148;5.636;15544.3;6907.67;84;0.909903;0.72535;12941.8;4417.98;
635;3.50353;14274.3;6475.73;84;1.18717;0.960988;12941.8;4417.98;
2284;7.1996;14506.7;6533.35;84;0.594529;0.460627;12941.8;4417.98;
1421;2.91152;14665.4;6225.8;84;0.400332;0.319869;12941.8;4417.98;
1314;2.67052;14207.7;6823.63;84;0.507166;0.39138;12941.8;4417.98;
587;5.42854;14436.2;6453.88;84;2.009;1.61996;12941.8;4417.98;
4513;20.8086;14677.4;6823.84;84;0.758503;0.610206;12941.8;4417.98;
2056;6.01401;14793.8;6916.17;84;0.519484;0.414383;12941.8;4417.98;
1309;12.9426;14601.3;6370.95;84;1.75068;1.38644;12941.8;4417.98;
735;9.45996;15010.1;6560.84;84;1.73343;1.40405;12941.8;4417.98;
747;6.63804;14556.3;6580.84;84;1.76435;1.41232;12941.8;4417.98;
1499;12.311;14404.9;6800.41;84;2.01045;1.65748;12941.8;4417.98;
2076;27.2902;15235.4;5577.29;84;2.51061;2.14149;12941.8;4417.98;
1037;4.74046;14771.1;6872.95;84;0.633328;0.509559;12941.8;4417.98;
883;9.13908;14472.3;6612.11;84;1.78633;1.45211;12941.8;4417.98;
1240;13.5892;14431.3;6241.77;84;1.98862;1.62148;12941.8;4417.98;
758;3.49187;14660.7;5738.36;84;0.996132;0.821158;12941.8;4417.98;
1490;3.03776;14547.8;6440.32;84;0.390521;0.302894;12941.8;4417.98;
758;1.42338;14511.7;6565.14;84;0.562644;0.4751;12941.8;4417.98;
1924;4.30531;14821.7;6887.17;84;0.445325;0.334565;12941.8;4417.98;
1350;15.2703;14868.2;6813.28;84;2.11942;1.72049;12941.8;4417.98;
3529;9.40402;14392;6390.09;84;0.517878;0.416063;12941.8;4417.98;
942;6.88991;14498.2;6364.02;84;1.98202;1.64576;12941.8;4417.98;
1350;14.2404;14533.5;6711.98;84;4.53083;3.80444;12941.8;4417.98;
687;1.31568;14600.5;6706.13;84;0.404882;0.312918;12941.8;4417.98;
670;4.53974;14348.3;6324.8;84;1.76462;1.50339;12941.8;4417.98;
743;2.89506;14657.5;6715.26;84;0.884275;0.729023;12941.8;4417.98;
1363;5.03143;14617.2;6320.47;84;0.770806;0.637629;12941.8;4417.98;
784;1.68356;14934.9;5137.2;84;0.405661;0.323904;12941.8;4417.98;
720;1.40023;14359.1;6115.43;84;0.562431;0.46158;12941.8;4417.98;
1418;2.80974;14482.1;6243.25;84;0.375561;0.296537;12941.8;4417.98;
618;3.1095;14998.5;6862.44;84;0.628235;0.492636;12941.8;4417.98;
736;1.38964;14602.8;6612.53;84;0.414877;0.336198;12941.8;4417.98;
1336;2.70054;14799.8;6215.31;84;0.492066;0.39171;12941.8;4417.98;
1624;11.6709;14520.1;6757.75;84;1.69711;1.36688;12941.8;4417.98;
1007;11.3045;14663.4;6040.6;84;2.18445;1.81681;12941.8;4417.98;
966;3.73203;14378.6;6444.86;84;0.993962;0.841328;12941.8;4417.98;
1737;18.5665;14334.9;6544.66;84;1.65059;1.3272;12941.8;4417.98;
752;2.02141;14689.2;6299.72;84;0.66518;0.529639;12941.8;4417.98;
710;7.22785;14769.6;6738.01;84;1.97277;1.56626;12941.8;4417.98;
1220;13.4891;14648.5;5673.61;84;2.37009;1.91513;12941.8;4417.98;
862;4.58355;14361.1;6811.26;84;1.26927;0.768179;12941.8;4417.98;
711;3.8562;14388.4;6134.96;84;0.941197;0.743171;12941.8;4417.98;
1051;5.09471;14564.7;6564.23;84;1.08807;0.867449;12941.8;4417.98;
1294;14.95;14746;5173.75;84;2.75486;2.18682;12941.8;4417.98;
1182;6.51672;14835.3;6907.92;84;1.04888;0.856071;12941.8;4417.98;
1108;11.8088;14418.7;6401.43;84;1.82221;1.46392;12941.8;4417.98;
991;3.24091;14576.4;6589.51;84;1.14185;0.991551;12941.8;4417.98;
750;3.11238;14684.6;6931.88;84;0.803664;0.637592;12941.8;4417.98;
591;6.00903;14459.6;6465.7;84;1.90815;1.54273;12941.8;4417.98;
822;9.42653;14410.8;6551.2;84;1.8145;1.41254;12941.8;4417.98;
2534;17.5834;14511.9;6759.41;84;1.34501;1.09314;12941.8;4417.98;
1557;4.3216;14550.9;6568.01;84;0.47187;0.374818;12941.8;4417.98;
1436;2.95063;14457.3;6733.5;84;0.484389;0.382267;12941.8;4417.98;
638;6.48925;14570.7;6584.1;84;1.98633;1.59915;12941.8;4417.98;
738;1.74133;14433.4;6707.77;84;0.542978;0.42125;12941.8;4417.98;
1248;2.55241;14503.2;6523.61;84;0.50612;0.425532;12941.8;4417.98;
739;7.10884;14457.3;6531.76;84;1.79822;1.46063;12941.8;4417.98;
1376;4.63047;14534.9;6226.4;84;0.602894;0.477244;12941.8;4417.98;
1198;4.04473;14969.6;6635.46;84;0.741542;0.603575;12941.8;4417.98;
696;4.54932;14547.4;6383.19;84;1.2612;1.00966;12941.8;4417.98;
1165;8.34224;14334;6665.78;84;1.32302;1.05085;12941.8;4417.98;
1256;12.9565;14521.6;6497.89;84;1.85129;1.48454;12941.8;4417.98;
1446;10.4021;14311.2;6330.93;84;1.30533;1.05613;12941.8;4417.98;
1092;8.03209;14509.6;6264.08;84;1.2477;0.990282;12941.8;4417.98;
932;6.49043;14381.1;6552.22;84;1.41601;1.12069;12941.8;4417.98;
1064;7.01953;14787.5;6859.79;84;1.34946;1.09146;12941.8;4417.98;
1709;13.0547;14488.2;6518.61;84;1.76941;1.04345;12941.8;4417.98;
2371;12.5784;14478.8;6219.36;84;1.7364;1.46029;12941.8;4417.98;
1331;12.8625;14600.6;6465.12;84;1.6977;1.37519;12941.8;4417.98;
1374;13.1656;14687.9;6422.99;84;1.63557;1.30663;12941.8;4417.98;
1006;9.00652;14773.3;5345.01;84;1.78406;1.45571;12941.8;4417.98;
958;4.46518;15794.6;6915.22;84;1.05633;0.871545;12941.8;4417.98;
1237;2.52837;14563.4;6390.31;84;0.401431;0.318448;12941.8;4417.98;
1794;20.2526;14597.3;6007.06;84;1.75846;1.41098;12941.8;4417.98;
2189;10.3258;14635.4;6892.66;84;1.06949;0.89083;12941.8;4417.98;
1154;4.7322;14485.4;5152.75;84;0.72361;0.578977;12941.8;4417.98;
2379;26.7482;14475.7;6769.39;84;1.97661;1.61086;12941.8;4417.98;
1688;16.9511;14376.6;6806.61;84;1.75185;1.41002;12941.8;4417.98;
1624;10.6221;14409.3;6472.09;84;1.17458;0.944224;12941.8;4417.98;
1465;9.37944;14429.8;6380.68;84;1.14654;0.913418;12941.8;4417.98;
1685;10.8115;14551.7;5315.62;84;1.27672;1.01563;12941.8;4417.98;
1083;3.09161;14569;6193;84;0.593501;0.476032;12941.8;4417.98;
1349;2.72202;14787.2;6814.62;84;0.385525;0.308922;12941.8;4417.98;
1351;2.68759;14236.7;6590.42;84;0.428993;0.349908;12941.8;4417.98;
1297;13.1617;14504.5;6421.2;84;2.25862;1.89991;12941.8;4417.98;
522;1.81926;14545.9;6486.27;84;0.782506;0.604654;12941.8;4417.98;
799;3.53435;14295.9;6397.44;84;0.850297;0.680915;12941.8;4417.98;
1404;12.985;14527.2;6539.77;84;1.72046;1.31264;12941.8;4417.98;
684;7.84168;14392.6;6401.89;84;1.79806;1.46626;12941.8;4417.98;
2708;24.2476;14616.6;6462.8;84;1.73038;1.40309;12941.8;4417.98;
1705;8.57032;14923.2;6484.29;84;0.906826;0.713475;12941.8;4417.98;
1679;9.20832;14591.3;6573.02;84;0.884088;0.707085;12941.8;4417.98;
814;5.81572;15050.2;6928.99;84;1.41024;1.13735;12941.8;4417.98;
871;4.63033;14598;6478.83;84;1.24581;1.03973;12941.8;4417.98;
2350;26.4027;14333.6;6473.96;84;1.9803;1.61042;12941.8;4417.98;
960;7.08813;14612.3;5669.55;84;1.39667;0.997121;12941.8;4417.98;
2256;19.2885;14294.7;6220.93;84;1.54236;1.18437;12941.8;4417.98;
1454;7.54141;15069.4;6929.97;84;1.01718;0.803312;12941.8;4417.98;
1022;5.0714;14473.6;6176.8;84;1.01636;0.807338;12941.8;4417.98;
1568;9.04441;14405.9;6485;84;0.930404;0.744278;12941.8;4417.98;
1469;9.70549;14681;6377.51;84;1.24842;1.019;12941.8;4417.98;
1180;8.77881;14539.8;6486.12;84;1.39058;0.990583;12941.8;4417.98;
1525;9.85421;15016.2;5670.24;84;1.2574;0.994712;12941.8;4417.98;
1639;10.6833;14692.4;6606.97;84;1.24728;1.01205;12941.8;4417.98;
1788;12.2408;14620.7;6328.37;84;1.50485;1.20883;12941.8;4417.98;
1915;4.79952;14823.3;5781.36;84;0.572032;0.452316;12941.8;4417.98;
1111;11.9181;14506.2;5951.09;84;1.92579;1.55811;12941.8;4417.98;
1061;10.377;14894.6;6504.27;84;1.88496;1.51863;12941.8;4417.98;
2126;20.6912;14749;6673.89;84;1.84048;1.47781;12941.8;4417.98;
804;3.71526;14524.3;5912.34;84;0.882589;0.698745;12941.8;4417.98;
1458;17.3167;14768.8;6049.54;84;2.00126;1.61244;12941.8;4417.98;
2226;12.6429;14801.1;6803.78;84;1.25294;1.00029;12941.8;4417.98;
1688;3.54033;14912.3;5525.68;84;0.402039;0.314799;12941.8;4417.98;
3991;36.9497;14482.1;6613.07;84;1.6984;1.32271;12941.8;4417.98;
594;1.61379;14269.4;6617.4;84;0.729504;0.554245;12941.8;4417.98;
1737;6.49562;14636.2;5531.44;84;0.790883;0.611075;12941.8;4417.98;
921;5.2816;14314;6518.56;84;1.16863;0.917473;12941.8;4417.98;
1724;10.6038;14584.6;6421.17;84;1.11388;0.898467;12941.8;4417.98;
1265;9.7862;14409.3;6277.22;84;1.43311;1.13036;12941.8;4417.98;
684;4.88463;14477;6610.05;84;1.4792;1.20254;12941.8;4417.98;
1713;13.2954;15340.6;6333.33;84;1.46718;1.19511;12941.8;4417.98;
498;5.07845;14508.5;6468.19;84;3.29261;2.74337;12941.8;4417.98;
1017;7.26274;14401;6746.38;84;1.50086;1.2278;12941.8;4417.98;
1858;15.5383;14677.3;6642.63;84;1.44514;1.16121;12941.8;4417.98;
1290;12.6282;14615.1;6463.92;84;1.51668;1.11395;12941.8;4417.98;
1067;8.79845;14491.7;5938.66;84;3.88212;3.16469;12941.8;4417.98;
668;2.61097;14549.3;6461.67;84;0.748244;0.59343;12941.8;4417.98;
945;3.94337;14284.5;6576.92;84;0.935585;0.6643;12941.8;4417.98;
1182;5.12409;14700.1;6565.59;84;0.811401;0.622707;12941.8;4417.98;
967;5.1423;14491;6709.23;84;1.06322;0.832582;12941.8;4417.98;
1607;16.0653;14879.6;5431.27;84;2.23063;1.76815;12941.8;4417.98;
1220;2.76059;14717.4;6427.09;84;0.473878;0.379136;12941.8;4417.98;
1054;4.6861;14639.4;6612.57;84;0.959287;0.746304;12941.8;4417.98;
871;1.69959;14508.7;6229.93;84;0.419753;0.334299;12941.8;4417.98;
1056;5.25484;14559.7;6487.04;84;0.997544;0.803624;12941.8;4417.98;
2015;25.1373;14181.2;6827.79;84;2.89909;2.27296;12941.8;4417.98;
755;3.79626;14564.8;6332.1;84;1.10605;0.891905;12941.8;4417.98;
1768;18.4893;14486.6;6764.71;84;1.94795;1.5735;12941.8;4417.98;
864;5.99303;14740.6;6369.18;84;1.73917;1.12449;12941.8;4417.98;
