RRT | Iteracoes;TempoRRT;ComprimentoRRT;InimigosRRT;A* | Celulas;TempoA;Grafo;ComprimentoA;InimigosA;Leaf Size = 5;Numero maximo iteracoes = 2000;Distancia minima destino = 360[mm];Distancia avanco base = 360[mm];
1589;5.1134;8966.13;15486.4;136;7.46798;6.80532;8269.44;8603.72;
501;1.7676;8254.75;13102.2;136;11.2697;10.4799;8269.44;8603.72;
476;1.64891;7773.14;4363.13;136;10.6702;9.75594;8269.44;8603.72;
1021;3.24317;8991.26;2280.63;136;10.4114;9.75621;8269.44;8603.72;
710;3.46837;8750.03;11226.5;136;11.319;10.5463;8269.44;8603.72;
532;1.44791;8231.91;11922.6;136;7.33061;6.76698;8269.44;8603.72;
462;1.55165;8802.19;1005.13;136;10.036;9.14448;8269.44;8603.72;
172;0.309821;8137.82;4345.33;136;3.6651;3.27422;8269.44;8603.72;
447;1.22448;9726.86;18809.2;136;6.04068;5.49598;8269.44;8603.72;
521;1.24355;8651.19;16815.3;136;4.927;4.25838;8269.44;8603.72;
129;0.27804;8854.33;2205.67;136;4.717;4.21245;8269.44;8603.72;
503;4.64717;9453.74;16109.2;136;19.7084;17.4095;8269.44;8603.72;
199;0.416885;8369.27;1835.02;136;5.07212;4.58102;8269.44;8603.72;
637;1.11694;7965.84;6560.51;136;3.75431;3.30969;8269.44;8603.72;
962;3.07228;9133.65;1108.39;136;6.71382;6.08782;8269.44;8603.72;
354;1.29542;9270.15;2971.49;136;8.01995;7.25943;8269.44;8603.72;
822;3.16027;8991.87;1588.54;136;10.568;9.68528;8269.44;8603.72;
371;1.36321;9242.38;784.29;136;11.3837;10.2986;8269.44;8603.72;
174;0.258039;8944.13;10977.8;136;3.69435;3.31615;8269.44;8603.72;
505;1.85563;8940.66;15467;136;8.60591;7.82771;8269.44;8603.72;
355;0.626266;8617.98;15648.1;136;3.80394;3.42742;8269.44;8603.72;
423;1.75269;8882.76;9746.11;136;15.2073;14.0953;8269.44;8603.72;
455;0.887188;8578.81;5325.89;136;3.79986;3.40181;8269.44;8603.72;
162;0.430831;8942.22;522.059;136;6.31541;5.76587;8269.44;8603.72;
91;0.197989;9055.01;12402.2;136;4.26569;3.8038;8269.44;8603.72;
633;2.45764;9230.66;15758;136;10.6036;9.82334;8269.44;8603.72;
517;0.944416;7957.64;11049.4;136;3.73641;3.34398;8269.44;8603.72;
192;1.15633;9680.64;1247.01;136;18.682;17.3697;8269.44;8603.72;
236;0.431208;8101.42;7848.53;136;3.77312;3.38669;8269.44;8603.72;
177;0.305709;8365;15002.3;136;3.69529;3.30382;8269.44;8603.72;
322;0.957801;9385.32;18039.7;136;6.66612;6.04504;8269.44;8603.72;
641;1.21866;9670.75;2313.51;136;3.80518;3.41171;8269.44;8603.72;
865;2.72336;8603.66;3191.03;136;6.97657;6.31684;8269.44;8603.72;
99;0.24075;9640.23;18963;136;4.70058;4.2064;8269.44;8603.72;
507;0.89364;9227.64;3402.01;136;3.76259;3.36668;8269.44;8603.72;
1272;4.48181;9132.53;2641.46;136;8.18879;7.43954;8269.44;8603.72;
1069;2.02291;8915.39;4462.86;136;3.77639;3.39126;8269.44;8603.72;
1015;2.78976;9479.46;18514;136;5.81969;5.26302;8269.44;8603.72;
320;0.604744;9135.56;845.189;136;3.76273;3.38178;8269.44;8603.72;
475;1.0434;9898;2615.54;136;5.12126;4.63961;8269.44;8603.72;
333;1.16366;9339.96;13350.2;136;8.08234;7.31041;8269.44;8603.72;
185;0.319971;8001.39;3498.43;136;3.74582;3.35236;8269.44;8603.72;
204;0.358856;8800.94;13670.7;136;3.75145;3.36315;8269.44;8603.72;
265;1.08819;7670.87;3904.93;136;14.6807;13.4212;8269.44;8603.72;
259;0.627853;9213.86;2253.65;136;10.6975;10.1382;8269.44;8603.72;
355;0.615894;9306.72;15639.1;136;3.88122;3.51612;8269.44;8603.72;
615;1.85981;8806.39;14288.4;136;6.65471;6.04005;8269.44;8603.72;
919;1.73031;8902.31;14550.3;136;3.8556;3.46556;8269.44;8603.72;
680;1.81535;8093.68;11101.1;136;6.1528;5.6037;8269.44;8603.72;
459;0.826221;8990.48;2703.95;136;3.81463;3.41669;8269.44;8603.72;
115;0.655486;9078.88;16474.9;136;16.3791;15.155;8269.44;8603.72;
230;0.66167;9309.3;2074.8;136;7.29059;6.64234;8269.44;8603.72;
125;1.01138;7900.83;14838.8;136;16.9189;15.1913;8269.44;8603.72;
1530;3.25756;8757.08;14087.8;136;4.11087;3.61;8269.44;8603.72;
114;0.248627;7997.1;12861.5;136;5.11146;4.62223;8269.44;8603.72;
178;0.975754;8373.61;12541.7;136;16.1326;14.7783;8269.44;8603.72;
1209;2.48746;8786.49;12898.9;136;3.98698;3.53575;8269.44;8603.72;
280;0.538436;9127.09;16571.9;136;3.81776;3.33335;8269.44;8603.72;
740;1.97501;8252.13;2748.96;136;6.28539;5.71518;8269.44;8603.72;
129;0.719636;8485.92;729.708;136;15.9666;14.7451;8269.44;8603.72;
197;0.357951;9078.86;1473.98;136;3.74046;3.35051;8269.44;8603.72;
469;1.18861;9454.16;1393.23;136;4.44241;3.8881;8269.44;8603.72;
159;0.364043;8524.52;12026.1;136;5.48002;4.9068;8269.44;8603.72;
406;1.4572;9614.56;9372.14;136;11.5781;10.8351;8269.44;8603.72;
873;1.70185;10167.3;1182.45;136;3.68816;3.31429;8269.44;8603.72;
118;0.653424;8531.65;6275.91;136;21.2369;20.0265;8269.44;8603.72;
1620;3.34;9361.5;17749.5;136;4.06787;3.6315;8269.44;8603.72;
113;0.348537;9295.22;3258.36;136;8.41251;7.70477;8269.44;8603.72;
387;2.35071;8293.67;7903.35;136;17.7951;16.4502;8269.44;8603.72;
498;1.19212;8528.3;1344.99;136;3.69367;3.28258;8269.44;8603.72;
318;1.18983;7977.15;3190.58;136;8.06657;7.27826;8269.44;8603.72;
136;0.39685;8724.11;7828.82;136;5.89784;5.32402;8269.44;8603.72;
189;0.64877;8166.54;2496.49;136;8.7683;7.92992;8269.44;8603.72;
161;0.255815;7924.79;7180.54;136;4.34464;3.94201;8269.44;8603.72;
390;2.66726;9480.17;17260.9;136;18.5078;16.7649;8269.44;8603.72;
506;1.41149;8627.34;11622.7;136;9.59107;8.89949;8269.44;8603.72;
593;1.82104;8368.55;1412.78;136;5.86188;5.1462;8269.44;8603.72;
467;1.32359;8974.55;5596.02;136;5.88319;5.14194;8269.44;8603.72;
365;1.01207;8019.84;4835.48;136;6.2405;5.60452;8269.44;8603.72;
217;1.01045;9234.17;14658.7;136;20.4485;19.3719;8269.44;8603.72;
310;0.579552;8585.11;617.331;136;3.81331;3.40541;8269.44;8603.72;
169;0.896003;8144.58;2598.38;136;16.7957;15.5823;8269.44;8603.72;
205;0.348743;9827.45;2059.18;136;3.83038;3.42509;8269.44;8603.72;
297;1.62492;8703.8;2739.33;136;20.5262;19.3157;8269.44;8603.72;
136;0.214321;8877.68;14175.4;136;3.7459;3.31258;8269.44;8603.72;
718;4.75372;8657.03;15819.2;136;22.0424;20.636;8269.44;8603.72;
450;1.19752;8109.67;10367.9;136;4.69065;4.12429;8269.44;8603.72;
557;1.64437;9437.39;15953.6;136;5.74245;5.15681;8269.44;8603.72;
359;1.88524;8593.17;16322.9;136;16.5837;15.5045;8269.44;8603.72;
238;0.399879;8228.52;2981.15;136;4.43334;4.02876;8269.44;8603.72;
233;0.340415;9570.79;18361.1;136;3.70804;3.31815;8269.44;8603.72;
805;1.70952;8808.31;1612.79;136;5.03538;4.59032;8269.44;8603.72;
739;1.40638;8944.13;1203.46;136;3.74775;3.34357;8269.44;8603.72;
418;0.906979;9769.38;19264.2;136;4.37256;3.91559;8269.44;8603.72;
663;4.06534;9878.52;2925.89;136;12.5224;11.5529;8269.44;8603.72;
286;0.522735;8444.51;3215;136;3.68561;3.26691;8269.44;8603.72;
303;0.557962;9213.08;11845.8;136;3.77495;3.37469;8269.44;8603.72;
142;0.313885;8058.66;11187.6;136;6.16022;5.62514;8269.44;8603.72;
321;0.746001;7584.44;5101.1;136;4.80524;4.3072;8269.44;8603.72;
585;1.88553;8666.59;13017.9;136;7.10004;6.43456;8269.44;8603.72;
800;2.31036;9284.92;1376.07;136;5.77151;5.22847;8269.44;8603.72;
212;0.36234;8859.95;1528.86;136;4.62333;4.23665;8269.44;8603.72;
162;0.483487;8734.03;1668.31;136;6.68758;6.04929;8269.44;8603.72;
310;0.544825;7485.89;4574.72;136;3.64783;3.23969;8269.44;8603.72;
1043;7.30935;9545.44;17883.8;136;16.4362;14.6837;8269.44;8603.72;
543;1.14026;8350.61;12237.4;136;4.14048;3.62923;8269.44;8603.72;
269;0.452383;9581.61;18477.8;136;3.70118;3.31095;8269.44;8603.72;
121;0.376913;8977.24;12223.1;136;9.80315;8.88565;8269.44;8603.72;
456;0.806529;9303.69;13901.2;136;3.63842;3.25001;8269.44;8603.72;
475;1.99235;7503.15;12175.1;136;16.7409;15.825;8269.44;8603.72;
586;1.57361;8591.56;12440.9;136;5.94324;5.37791;8269.44;8603.72;
301;0.542852;8704.17;8418.9;136;3.65504;3.26863;8269.44;8603.72;
712;1.99102;9141.69;5606.6;136;5.83812;5.27507;8269.44;8603.72;
464;1.02055;8910.82;4161.05;136;5.36128;4.76732;8269.44;8603.72;
336;0.8904;9098.92;14630.7;136;6.12125;5.46069;8269.44;8603.72;
849;1.6815;9566.23;4928.3;136;4.07683;3.66329;8269.44;8603.72;
110;0.909893;9007.75;15203;136;16.399;14.6738;8269.44;8603.72;
435;0.875575;9992.21;2589.76;136;4.51918;4.03281;8269.44;8603.72;
1249;5.00565;9047.4;5012.53;136;10.6158;9.84614;8269.44;8603.72;
246;0.438862;9147.54;16509.4;136;3.98598;3.59237;8269.44;8603.72;
875;3.36741;8992.59;3105.43;136;10.1429;9.3695;8269.44;8603.72;
459;0.811348;8726.04;1501.25;136;3.99587;3.6054;8269.44;8603.72;
251;0.941026;8995.13;1816.13;136;7.03772;6.30266;8269.44;8603.72;
503;2.10913;9456.25;15837.2;136;12.4802;11.5581;8269.44;8603.72;
185;0.338924;8975.64;8508.77;136;3.75392;3.294;8269.44;8603.72;
487;2.00864;9019.28;10715;136;15.7891;14.6882;8269.44;8603.72;
442;0.769593;8433.25;3894.42;136;3.73285;3.24433;8269.44;8603.72;
420;0.760259;9158.73;16013.8;136;3.66636;3.26643;8269.44;8603.72;
115;0.225619;9031.49;661.521;136;3.94151;3.52756;8269.44;8603.72;
366;1.52848;8581.82;3508.19;136;12.0705;11.1403;8269.44;8603.72;
241;0.399677;9036.62;636.724;136;3.75915;3.35872;8269.44;8603.72;
361;0.616981;9411.42;2648.16;136;3.7405;3.31721;8269.44;8603.72;
202;0.492197;8825.71;10484.7;136;5.64923;5.02942;8269.44;8603.72;
377;0.956783;8255.45;12267.2;136;6.53318;5.87905;8269.44;8603.72;
293;0.601323;8150.44;4444.92;136;4.55524;3.97971;8269.44;8603.72;
418;1.03239;8114.19;2175.22;136;6.97366;6.36122;8269.44;8603.72;
1223;2.55511;8192.46;9127.26;136;4.46722;3.90044;8269.44;8603.72;
509;0.923689;8868.27;14195.4;136;3.7153;3.28261;8269.44;8603.72;
298;1.04666;8856.95;4484.19;136;12.7281;11.9441;8269.44;8603.72;
518;0.909893;9595.84;18963.6;136;3.63006;3.24213;8269.44;8603.72;
412;0.791806;7778.18;7698.69;136;5.2733;4.73802;8269.44;8603.72;
443;2.70719;8459.2;14516;136;13.8686;12.5044;8269.44;8603.72;
319;0.551693;10071.9;2358.6;136;3.71692;3.33742;8269.44;8603.72;
798;2.40162;9078.06;18737.5;136;6.285;5.66318;8269.44;8603.72;
615;2.02058;8995.17;16125;136;7.7179;7.03206;8269.44;8603.72;
118;0.193959;8443.36;9745.6;136;3.69849;3.31487;8269.44;8603.72;
433;4.79853;8930.26;1806.44;136;17.4266;15.6981;8269.44;8603.72;
554;1.16795;8780.15;6221.56;136;5.03408;4.59142;8269.44;8603.72;
139;0.333857;8627.81;1527.56;136;5.3678;4.81515;8269.44;8603.72;
139;0.215685;8389.19;14969.4;136;3.77192;3.32112;8269.44;8603.72;
368;3.0975;7555.73;3079.79;136;16.6075;14.9056;8269.44;8603.72;
618;1.30478;10157.3;8173.85;136;4.54977;4.02337;8269.44;8603.72;
208;0.682256;8615.69;12877.3;136;7.99368;7.14799;8269.44;8603.72;
99;0.782836;8262.5;11758.8;136;16.5172;14.691;8269.44;8603.72;
238;0.442917;8234.61;1341.32;136;4.11503;3.72039;8269.44;8603.72;
619;1.14628;8361.33;12414;136;3.87451;3.48771;8269.44;8603.72;
223;0.891892;9347.73;17836;136;9.96686;9.22606;8269.44;8603.72;
222;0.364095;8907.47;1258.02;136;3.82689;3.40205;8269.44;8603.72;
520;2.27054;7403.78;2660.34;136;10.6942;9.60925;8269.44;8603.72;
604;2.00372;8544.77;1225.74;136;8.57522;7.76463;8269.44;8603.72;
452;1.26434;9007.89;16154.2;136;5.79626;5.21965;8269.44;8603.72;
726;1.34084;10551.5;3064.26;136;3.96476;3.53852;8269.44;8603.72;
266;1.23396;10522;3214.05;136;14.2257;13.2809;8269.44;8603.72;
732;1.36268;8085.32;10307.1;136;3.96591;3.56465;8269.44;8603.72;
336;0.881675;9090.24;7111.53;136;5.99055;5.41368;8269.44;8603.72;
166;0.297385;9883.42;19297.4;136;3.80877;3.41846;8269.44;8603.72;
400;0.637564;9964.9;17441.5;136;3.6308;3.23554;8269.44;8603.72;
629;1.12318;8058.38;1714.41;136;3.80376;3.40522;8269.44;8603.72;
155;0.264707;9229.95;17672.8;136;7.68726;7.20697;8269.44;8603.72;
822;1.56145;9225.57;17437.1;136;3.69758;3.28663;8269.44;8603.72;
179;0.829171;8279.55;4710.58;136;18.5067;17.2762;8269.44;8603.72;
640;1.17098;8441.24;719.926;136;3.76986;3.36914;8269.44;8603.72;
567;1.15687;8085.7;2478.64;136;4.70173;4.06739;8269.44;8603.72;
336;1.23425;8116.66;9699.47;136;8.42523;7.61526;8269.44;8603.72;
158;0.261466;7980.72;4082.5;136;3.81298;3.38539;8269.44;8603.72;
179;0.461435;8469.76;14252.1;136;7.32089;6.65608;8269.44;8603.72;
296;0.775477;8602.37;6853.59;136;6.39477;5.7151;8269.44;8603.72;
217;0.351944;8850.29;17781.1;136;3.71359;3.24308;8269.44;8603.72;
188;1.06828;8365.65;3257.73;136;15.9239;14.7038;8269.44;8603.72;
955;2.84161;9368.79;2302.69;136;7.66528;6.99352;8269.44;8603.72;
1077;2.04528;9099.82;2668.47;136;3.78913;3.32312;8269.44;8603.72;
111;0.44655;8497.09;10811.2;136;14.3001;13.1578;8269.44;8603.72;
325;0.590508;9623.87;987.382;136;3.96481;3.56497;8269.44;8603.72;
108;0.278;8309.56;710.332;136;6.06371;5.4891;8269.44;8603.72;
1085;2.29736;8859.81;17581.1;136;4.28433;3.79843;8269.44;8603.72;
118;0.211258;7715.72;10709.3;136;4.02496;3.50259;8269.44;8603.72;
517;2.68119;8691.89;2424.9;136;17.411;15.9545;8269.44;8603.72;
1285;2.92936;10011.9;2184.34;136;3.78175;3.33044;8269.44;8603.72;
621;1.24008;8768.51;16275.6;136;3.73815;3.34803;8269.44;8603.72;
403;1.28597;9184.78;17316.7;136;7.9742;7.16779;8269.44;8603.72;
358;0.668774;8600.95;759.009;136;3.77444;3.36335;8269.44;8603.72;
194;0.297142;10275.3;20321.1;136;3.83601;3.41523;8269.44;8603.72;
521;1.98518;8344.33;4068.15;136;6.8739;6.16882;8269.44;8603.72;
429;0.83535;9078.93;15760.9;136;4.65413;4.19649;8269.44;8603.72;
645;1.37841;8570.35;4850.41;136;4.16244;3.7051;8269.44;8603.72;
690;2.27572;9174.17;1307.63;136;7.78769;7.01297;8269.44;8603.72;
663;1.23531;9745.13;2812.57;136;3.78181;3.30673;8269.44;8603.72;
175;0.562615;9666.76;15449;136;7.94804;7.12045;8269.44;8603.72;
367;0.657892;8906.44;2131.26;136;3.71281;3.3069;8269.44;8603.72;
291;0.646526;9120.31;16230.4;136;5.00179;4.49648;8269.44;8603.72;
