RRT | Iteracoes;TempoRRT;ComprimentoRRT;InimigosRRT;A* | Celulas;TempoA;Grafo;ComprimentoA;InimigosA;Leaf Size = 200;Numero maximo iteracoes = 2000;Distancia minima destino = 360[mm];Distancia avanco base = 360[mm];
195;1.13823;7590.1;3424.73;65;16.7111;16.0386;8078.16;6102.65;
118;0.212884;8383.06;12326.3;65;5.00088;4.74016;8078.16;6102.65;
352;1.68562;7877.32;14580.6;65;13.9608;13.2152;8078.16;6102.65;
143;0.269705;8829.03;3793.97;65;3.97956;3.68339;8078.16;6102.65;
143;0.522561;8092.69;5194.13;65;13.4882;12.902;8078.16;6102.65;
324;0.625311;8793.21;16329.3;65;3.65783;3.3893;8078.16;6102.65;
280;1.608;7991.99;5511.27;65;18.4804;17.6577;8078.16;6102.65;
154;0.267051;8273.23;14524;65;4.1134;3.8474;8078.16;6102.65;
1150;3.61503;8885.59;1278.11;65;4.81243;4.49169;8078.16;6102.65;
424;0.852205;8333.04;15952.2;65;3.70024;3.35122;8078.16;6102.65;
454;0.89811;7790.73;12867;65;3.53403;3.27702;8078.16;6102.65;
157;0.672855;8581.41;1055.75;65;9.82715;9.25658;8078.16;6102.65;
257;2.32713;8052.14;11423.6;65;15.9324;14.9107;8078.16;6102.65;
508;1.22924;7798.03;10684.2;65;4.94975;4.64344;8078.16;6102.65;
127;0.324092;8281.43;1239.56;65;5.69205;5.34995;8078.16;6102.65;
148;0.750978;8456.76;14330.5;65;15.7794;14.9506;8078.16;6102.65;
319;1.31978;7964.49;12114.1;65;10.2197;9.60976;8078.16;6102.65;
919;2.04832;8417.9;664.229;65;3.64546;3.36115;8078.16;6102.65;
242;0.554051;8276.48;4033.88;65;4.2198;3.91595;8078.16;6102.65;
75;0.271283;7919.26;13629;65;7.95772;7.48534;8078.16;6102.65;
132;0.232176;8065.49;10088.1;65;3.61152;3.34268;8078.16;6102.65;
234;0.439955;7949.08;13828.8;65;3.57046;3.32017;8078.16;6102.65;
804;3.1756;8514.88;3062.48;65;5.56078;5.11233;8078.16;6102.65;
173;0.525898;8293.89;2110.97;65;6.61276;6.17018;8078.16;6102.65;
129;0.849691;8016.9;5330.15;65;15.9284;15.0539;8078.16;6102.65;
279;0.504447;7994.34;1378.79;65;3.63079;3.37335;8078.16;6102.65;
186;0.325184;8310.92;17748.6;65;3.70885;3.46013;8078.16;6102.65;
957;4.78137;7681.3;13382;65;13.7417;13.1218;8078.16;6102.65;
87;0.159556;7788.09;13240.2;65;3.5374;3.2909;8078.16;6102.65;
868;3.50177;8652.47;3084.38;65;7.33616;6.87546;8078.16;6102.65;
165;0.441452;7937.68;13209;65;6.077;5.64457;8078.16;6102.65;
534;1.35906;8942.59;6655.2;65;4.59072;4.26606;8078.16;6102.65;
275;0.609046;7663.83;14395;65;4.98436;4.62828;8078.16;6102.65;
536;1.09347;7875.95;12612.5;65;4.04642;3.77696;8078.16;6102.65;
654;1.95094;8954.85;1879.01;65;6.64542;6.23087;8078.16;6102.65;
181;0.495592;8252.67;11650.8;65;5.29951;4.94625;8078.16;6102.65;
216;0.365392;7865.49;12808.1;65;3.65327;3.39593;8078.16;6102.65;
337;1.61756;8878.52;1163.24;65;8.28608;7.8128;8078.16;6102.65;
464;0.910548;8592.72;16509.4;65;3.47999;3.23119;8078.16;6102.65;
198;0.897358;8860.76;3183.49;65;13.1399;12.5346;8078.16;6102.65;
885;6.70675;8538.87;17816.3;65;11.9593;11.1441;8078.16;6102.65;
614;1.48783;8688.14;12861.5;65;4.35594;4.03047;8078.16;6102.65;
1136;2.65676;7222.79;11477.8;65;3.7725;3.50678;8078.16;6102.65;
171;0.401149;8531.68;14544.5;65;5.17605;4.81559;8078.16;6102.65;
85;0.679391;8253.96;16601;65;16.2994;15.2701;8078.16;6102.65;
104;0.182906;9150.04;15455.1;65;4.1579;3.87712;8078.16;6102.65;
314;2.92186;8295;3128.63;65;16.2923;15.2636;8078.16;6102.65;
114;0.218537;8101.35;3304.11;65;4.15934;3.87573;8078.16;6102.65;
252;0.984272;8256.41;13829.2;65;8.95291;8.44237;8078.16;6102.65;
172;0.321838;8433.26;1426.87;65;3.6425;3.37016;8078.16;6102.65;
577;3.78063;8249.38;5492.56;65;16.5574;15.6818;8078.16;6102.65;
147;0.279782;8499.59;13440.2;65;3.70819;3.41313;8078.16;6102.65;
250;0.816818;7668.01;10652.3;65;7.15678;6.74297;8078.16;6102.65;
634;1.51942;9227.92;2276.92;65;4.18746;3.88255;8078.16;6102.65;
320;1.54088;9361.01;3126.66;65;12.8636;12.2322;8078.16;6102.65;
130;0.224437;8210.84;12178.6;65;3.66328;3.40228;8078.16;6102.65;
449;1.2071;8670.74;4162.32;65;5.1247;4.75622;8078.16;6102.65;
585;1.2045;8420.34;17027.2;65;3.73425;3.46178;8078.16;6102.65;
663;2.87582;7746.58;9209.46;65;9.9309;9.34131;8078.16;6102.65;
673;2.7442;8260.32;11369.1;65;9.88033;9.32551;8078.16;6102.65;
140;0.668237;8484.43;857.859;65;10.3066;9.7207;8078.16;6102.65;
426;0.910966;8350.31;14777.8;65;3.87847;3.59615;8078.16;6102.65;
457;0.99188;8810.47;1802.82;65;3.94984;3.66463;8078.16;6102.65;
712;2.46503;8754.15;6400.38;65;7.12376;6.66737;8078.16;6102.65;
321;1.00944;7956.88;14061;65;6.31369;5.89708;8078.16;6102.65;
253;0.482809;8056.02;6345.79;65;3.84248;3.59354;8078.16;6102.65;
381;1.50251;8462.46;14552.7;65;8.67091;8.17422;8078.16;6102.65;
84;0.150079;8178.16;15042;65;3.80114;3.53853;8078.16;6102.65;
138;0.260847;8106.41;10073.6;65;3.55228;3.27051;8078.16;6102.65;
605;2.62395;7579.21;15868.2;65;8.87164;8.38032;8078.16;6102.65;
1228;8.22419;8094.36;11834.4;65;15.3556;14.6175;8078.16;6102.65;
983;2.1845;8707.75;11938.9;65;3.58152;3.31832;8078.16;6102.65;
147;0.524891;8574.08;17703.8;65;8.93231;8.41582;8078.16;6102.65;
212;0.931642;8122.79;17018.4;65;12.9915;12.3965;8078.16;6102.65;
396;1.02937;8067.94;14570.6;65;4.711;4.37444;8078.16;6102.65;
619;3.16834;8340.17;14704.5;65;12.8552;12.2568;8078.16;6102.65;
152;0.263532;8128.17;11785.6;65;3.51762;3.27277;8078.16;6102.65;
719;2.68227;8233.02;15586.7;65;7.45577;7.01876;8078.16;6102.65;
133;0.417009;8033.12;14820.5;65;7.46281;7.00339;8078.16;6102.65;
302;0.534233;7725.16;11693.5;65;3.64327;3.3692;8078.16;6102.65;
667;1.48007;7948.56;15767.5;65;3.67076;3.39222;8078.16;6102.65;
234;0.743067;9604.72;2653.5;65;6.09612;5.68048;8078.16;6102.65;
742;2.01293;8141.81;15090;65;4.79928;4.48593;8078.16;6102.65;
109;0.525654;7969.67;13678.6;65;15.5441;14.7391;8078.16;6102.65;
336;0.645931;8175.17;13978.2;65;3.60659;3.34921;8078.16;6102.65;
118;0.317363;8075.92;3945.67;65;6.28035;5.91528;8078.16;6102.65;
419;3.67473;7935.69;6130.84;65;15.6971;14.6592;8078.16;6102.65;
309;0.630858;8067.7;16127.1;65;4.26941;3.97361;8078.16;6102.65;
146;0.309619;7878.35;12030.3;65;3.85923;3.59049;8078.16;6102.65;
141;0.454013;8278.33;16048.7;65;6.52089;6.09282;8078.16;6102.65;
129;0.238404;8876.62;1529.66;65;3.60021;3.35251;8078.16;6102.65;
658;5.06055;7913.37;13051.4;65;22.2487;21.2605;8078.16;6102.65;
282;0.532495;7855.95;13747.3;65;3.77025;3.52698;8078.16;6102.65;
153;0.249408;8573.35;13526.8;65;3.5617;3.30135;8078.16;6102.65;
330;0.980579;7560.1;11130;65;3.87128;3.52305;8078.16;6102.65;
1198;4.36599;8552.72;8974.61;65;4.8659;4.49729;8078.16;6102.65;
790;4.82782;7616.97;12279.6;65;14.497;13.857;8078.16;6102.65;
343;0.658115;8860.72;2577.88;65;5.34918;5.07838;8078.16;6102.65;
180;0.361608;8147.28;10729.7;65;5.05315;4.77354;8078.16;6102.65;
153;0.814447;7607.64;12046.8;65;19.0216;18.307;8078.16;6102.65;
98;0.579082;8298.5;16411.2;65;10.3301;9.63489;8078.16;6102.65;
833;1.95505;8515.34;14619.1;65;3.63642;3.32415;8078.16;6102.65;
209;0.516529;8410.08;15713.4;65;5.37579;5.0279;8078.16;6102.65;
197;0.378559;8106.2;14886.4;65;4.05495;3.76074;8078.16;6102.65;
86;0.21379;7995.45;12625.8;65;5.34376;4.99104;8078.16;6102.65;
603;4.03147;7880.41;14159.6;65;15.3716;14.539;8078.16;6102.65;
664;1.43772;7698.1;12279.1;65;3.82768;3.57932;8078.16;6102.65;
330;0.646311;8072.14;11979.5;65;3.87598;3.60684;8078.16;6102.65;
962;9.03733;7778.22;11066;65;16.4699;15.4332;8078.16;6102.65;
477;1.21036;7863.88;2036.7;65;4.82222;4.50294;8078.16;6102.65;
145;0.333813;7868.17;13421.2;65;4.88973;4.55583;8078.16;6102.65;
495;1.5291;8012.75;14835.5;65;5.89799;5.52571;8078.16;6102.65;
109;0.272589;7788.46;9567.21;65;5.69852;5.33392;8078.16;6102.65;
576;2.06126;8170.17;8492.06;65;7.96794;7.48859;8078.16;6102.65;
264;0.625722;7815.22;12333;65;5.36049;5.04329;8078.16;6102.65;
181;0.795188;8527.4;1927.94;65;10.6285;10.0525;8078.16;6102.65;
1103;2.56934;9843.93;7137.17;65;3.48187;3.23701;8078.16;6102.65;
246;0.580478;7725.98;13038.5;65;4.87059;4.53774;8078.16;6102.65;
100;0.542157;8254.88;11769.2;65;15.7434;15.0783;8078.16;6102.65;
576;1.85573;8032.26;2622.47;65;4.92316;4.5853;8078.16;6102.65;
251;0.830741;7872.74;11581.6;65;7.16059;6.75065;8078.16;6102.65;
127;0.225547;8445.12;14900.9;65;5.38057;5.08598;8078.16;6102.65;
891;1.94498;7930.13;15106.3;65;3.83611;3.56369;8078.16;6102.65;
97;0.177189;8043.8;1570.63;65;3.57032;3.32405;8078.16;6102.65;
159;1.02737;7924.48;8031.96;65;20.5694;19.7499;8078.16;6102.65;
288;0.541242;8019.52;14741.3;65;3.6301;3.36098;8078.16;6102.65;
357;2.20707;8274.04;13103.7;65;16.0449;15.3789;8078.16;6102.65;
267;0.810917;9631.21;2462.71;65;4.94019;4.61241;8078.16;6102.65;
1008;2.51604;8343.01;6400.05;65;3.90465;3.62293;8078.16;6102.65;
141;0.643942;8104.83;13760.6;65;10.6126;10.0582;8078.16;6102.65;
465;0.95816;8568.77;15606.6;65;4.19666;3.93064;8078.16;6102.65;
220;0.394476;8751.7;15370.6;65;3.52112;3.26132;8078.16;6102.65;
145;0.811724;7981.82;11300.5;65;15.9987;15.2746;8078.16;6102.65;
95;0.176823;7426.88;10399.1;65;3.82778;3.56073;8078.16;6102.65;
181;0.440824;7666.79;10741.5;65;5.3761;5.02496;8078.16;6102.65;
287;1.03035;9180.59;1694.28;65;9.14779;8.67834;8078.16;6102.65;
401;0.817688;8351.43;17813.8;65;3.54458;3.29259;8078.16;6102.65;
449;1.22824;8412.82;15434;65;5.59417;5.24475;8078.16;6102.65;
249;1.41101;8099.46;8741.51;65;16.15;15.3643;8078.16;6102.65;
154;0.390801;8095.71;2631.84;65;4.91901;4.56905;8078.16;6102.65;
402;0.94921;8158.03;12428.6;65;4.89832;4.57736;8078.16;6102.65;
116;0.2955;7899.5;13128.3;65;5.57348;5.22541;8078.16;6102.65;
133;0.63782;7906.01;13880.2;65;8.92508;8.30173;8078.16;6102.65;
377;1.51972;8200.92;766.272;65;8.12158;7.63866;8078.16;6102.65;
132;0.452503;7852.53;13526.2;65;9.82592;9.32621;8078.16;6102.65;
384;1.13523;8144.52;13492.2;65;5.87832;5.49072;8078.16;6102.65;
740;3.1715;8481.27;12496.4;65;9.34965;8.81864;8078.16;6102.65;
187;0.377824;8640.47;1020.05;65;4.9158;4.61191;8078.16;6102.65;
181;0.78303;8270.87;13651;65;13.8436;13.0606;8078.16;6102.65;
287;0.543051;8007.15;1179.93;65;3.70083;3.43101;8078.16;6102.65;
113;0.233912;8508.75;963.498;65;4.30166;3.98282;8078.16;6102.65;
141;0.510541;7901.38;11447.9;65;9.79992;9.30184;8078.16;6102.65;
234;0.555311;8053.42;461.786;65;4.9922;4.66425;8078.16;6102.65;
199;0.61011;8117.78;16701.2;65;7.06106;6.41423;8078.16;6102.65;
257;0.486225;8750.45;15048.5;65;3.80602;3.54722;8078.16;6102.65;
298;0.807817;8190.07;13936.4;65;5.43436;5.07812;8078.16;6102.65;
154;1.75306;7692.79;4439.49;65;21.0173;19.5258;8078.16;6102.65;
731;2.00252;9147.25;1215.63;65;4.49363;4.20258;8078.16;6102.65;
586;1.95057;8907.06;13771.6;65;3.97861;3.63198;8078.16;6102.65;
343;1.34595;7671.67;12753.7;65;8.2668;7.77616;8078.16;6102.65;
521;2.88005;8943.48;16579.2;65;13.9393;13.2642;8078.16;6102.65;
124;0.28626;8071.23;16721.5;65;7.44271;7.01998;8078.16;6102.65;
238;1.58099;8130.9;13228.5;65;21.2029;20.3612;8078.16;6102.65;
124;0.233959;8071.97;1655.77;65;3.71152;3.44523;8078.16;6102.65;
591;3.86813;9129.66;1610.23;65;18.7416;17.9483;8078.16;6102.65;
604;1.24865;8339.55;15541.4;65;3.59382;3.33339;8078.16;6102.65;
844;5.28384;7927.62;12007.9;65;12.9621;12.2793;8078.16;6102.65;
739;1.77404;7820.07;10787.8;65;5.74761;5.47641;8078.16;6102.65;
409;2.66082;8188.9;12922.8;65;11.9366;11.1109;8078.16;6102.65;
230;0.427901;8456.14;16821.8;65;3.53594;3.26356;8078.16;6102.65;
218;0.676758;8364.86;12640.3;65;6.86263;6.32491;8078.16;6102.65;
163;0.529372;7867.24;13287.8;65;8.62021;8.1095;8078.16;6102.65;
907;3.45808;8919.07;18775.2;65;6.09603;5.68817;8078.16;6102.65;
106;0.338156;7824.14;11293.9;65;5.96529;5.5587;8078.16;6102.65;
148;0.583045;9046.87;1320.25;65;5.95742;5.54457;8078.16;6102.65;
336;2.16527;8197.1;13446;65;20.8091;19.835;8078.16;6102.65;
254;0.426175;8503.69;5717.29;65;3.5902;3.32403;8078.16;6102.65;
383;3.28166;8442.34;11581.2;65;17.2725;16.2206;8078.16;6102.65;
448;1.10239;7718.47;10772.1;65;4.56515;4.20943;8078.16;6102.65;
426;0.835983;7818.57;14583.6;65;3.66233;3.41412;8078.16;6102.65;
130;0.338872;8165.75;15240.2;65;4.69033;4.37134;8078.16;6102.65;
169;0.657719;7729.59;15233.8;65;5.19029;4.83414;8078.16;6102.65;
975;3.19801;7369.7;4434.49;65;5.58221;5.21776;8078.16;6102.65;
548;1.95172;7659.74;7135.57;65;5.05403;4.69219;8078.16;6102.65;
255;0.916524;8473.05;1527.03;65;8.35203;7.88731;8078.16;6102.65;
123;1.27928;8306.96;14157.3;65;18.4311;17.2394;8078.16;6102.65;
789;1.90002;8899.58;16104.6;65;3.94773;3.65573;8078.16;6102.65;
214;1.37527;7625.12;9111.4;65;14.5273;13.7302;8078.16;6102.65;
313;0.57857;8235.03;13295.4;65;3.59058;3.3421;8078.16;6102.65;
931;3.60003;8633.48;2494.72;65;6.90517;6.35892;8078.16;6102.65;
437;0.939401;7968.06;13346.2;65;4.03889;3.75028;8078.16;6102.65;
522;1.08475;9444.46;2570.39;65;3.63043;3.37405;8078.16;6102.65;
558;1.93724;8426.38;14743.8;65;6.84594;6.42161;8078.16;6102.65;
201;0.369677;8308.28;12970.6;65;3.59144;3.31701;8078.16;6102.65;
819;2.35503;8539.42;16171.9;65;5.1918;4.83634;8078.16;6102.65;
491;1.01342;8207.36;14432.9;65;3.57901;3.32675;8078.16;6102.65;
283;1.70007;8433.63;15429;65;14.3855;13.6383;8078.16;6102.65;
193;1.22085;8188.06;1367.25;65;11.8214;10.9894;8078.16;6102.65;
550;1.21067;8256.05;17142.3;65;3.62081;3.31944;8078.16;6102.65;
602;1.83116;8902.74;1702.76;65;5.93302;5.53849;8078.16;6102.65;
