RRT | Iteracoes;TempoRRT;ComprimentoRRT;InimigosRRT;A* | Celulas;TempoA;Grafo;ComprimentoA;InimigosA;Leaf Size = 500;Numero maximo iteracoes = 2000;Distancia minima destino = 360[mm];Distancia avanco base = 360[mm];
218;0.422247;8547.79;17249.5;65;3.81254;3.53652;8078.16;6102.65;
159;0.692396;8943.54;15960.6;65;9.89084;9.32039;8078.16;6102.65;
99;0.164835;8037.73;14715.6;65;3.58953;3.32379;8078.16;6102.65;
455;1.34704;8310.97;15070.7;65;4.59635;4.28549;8078.16;6102.65;
125;0.313521;7573.84;9922.71;65;6.01339;5.65377;8078.16;6102.65;
240;0.495032;8660.5;12626;65;3.53669;3.27858;8078.16;6102.65;
140;0.394431;8783.76;17758.9;65;6.60605;6.18457;8078.16;6102.65;
472;3.33585;8026.88;11444.4;65;15.5126;14.5612;8078.16;6102.65;
696;1.69085;8307.53;7742.13;65;3.63203;3.36415;8078.16;6102.65;
219;0.524364;8011.91;11159.9;65;4.40968;4.11482;8078.16;6102.65;
598;2.78212;8076.04;13646.3;65;8.33488;7.84952;8078.16;6102.65;
324;0.673654;8149.04;13667.5;65;3.55187;3.2912;8078.16;6102.65;
164;0.486531;8218.32;14373.1;65;6.70311;6.26916;8078.16;6102.65;
732;2.71122;8077.44;12811.4;65;4.92922;4.58109;8078.16;6102.65;
543;2.39419;8170.7;13947.3;65;5.04017;4.71814;8078.16;6102.65;
448;2.57375;8686.44;15232.7;65;17.6769;16.9488;8078.16;6102.65;
406;0.886533;8161.75;12903.4;65;4.07167;3.8215;8078.16;6102.65;
815;2.81401;8673.49;13970.6;65;5.56617;5.13499;8078.16;6102.65;
155;0.386434;8183.52;1195.81;65;5.41311;5.04233;8078.16;6102.65;
94;0.172564;8554.91;16359;65;3.64871;3.39631;8078.16;6102.65;
491;2.75422;7831.01;13323.1;65;16.8588;16.2232;8078.16;6102.65;
307;0.727268;7722.53;14370.6;65;4.18292;3.91712;8078.16;6102.65;
153;0.887302;8029.09;704.755;65;17.3661;16.7371;8078.16;6102.65;
173;0.959342;8015.5;9515.14;65;11.3744;10.6259;8078.16;6102.65;
495;2.79072;7984.83;12314.5;65;8.81262;8.32824;8078.16;6102.65;
953;12.3563;9492.35;3998.05;65;19.5806;18.0519;8078.16;6102.65;
103;0.236125;8364.3;13830.7;65;5.64279;5.33193;8078.16;6102.65;
398;0.874025;8128.15;15728.8;65;3.64371;3.39484;8078.16;6102.65;
98;0.253424;8016.19;12276.2;65;5.45577;5.08685;8078.16;6102.65;
149;0.237983;7875.42;11333.4;65;3.58125;3.34926;8078.16;6102.65;
115;0.337993;8075.17;14141.1;65;7.53142;7.08272;8078.16;6102.65;
323;2.13976;9267.78;1645.49;65;17.77;17.0151;8078.16;6102.65;
349;0.745385;8763.28;2389.69;65;3.76944;3.50821;8078.16;6102.65;
112;0.20806;8606.36;13834.1;65;3.58303;3.2854;8078.16;6102.65;
99;0.272239;7865.33;11310.7;65;6.39663;5.96754;8078.16;6102.65;
683;1.74542;8390.47;1480.12;65;3.68149;3.42943;8078.16;6102.65;
448;2.17509;7901.23;14739.9;65;8.61842;8.14727;8078.16;6102.65;
122;0.227917;7938.02;14783.4;65;3.56098;3.32272;8078.16;6102.65;
81;0.356351;8131.42;1469.27;65;8.87741;8.37871;8078.16;6102.65;
521;1.2417;8042.5;1946.33;65;3.5808;3.28714;8078.16;6102.65;
135;0.234691;8147.49;10450.6;65;3.55988;3.28519;8078.16;6102.65;
114;0.201699;8234.35;12254;65;4.00237;3.71705;8078.16;6102.65;
562;2.3456;7780.76;12334.9;65;7.40277;6.99253;8078.16;6102.65;
158;1.45458;8277.96;16873.2;65;17.5203;16.3957;8078.16;6102.65;
129;0.265348;7878.21;13329.8;65;4.37385;4.08401;8078.16;6102.65;
622;1.56831;8165.08;11389.4;65;3.51356;3.26851;8078.16;6102.65;
269;0.712998;8421.47;14975.8;65;4.88649;4.57398;8078.16;6102.65;
85;0.322016;8236.44;14491.1;65;8.61402;8.12383;8078.16;6102.65;
673;1.84153;8309.06;1419.34;65;3.53348;3.28445;8078.16;6102.65;
541;1.78048;8866.49;1757.64;65;5.30208;4.94846;8078.16;6102.65;
588;2.48958;7758.82;12398.2;65;7.59086;7.10643;8078.16;6102.65;
617;3.6592;7613.12;11590.5;65;13.3071;12.6933;8078.16;6102.65;
174;0.330042;8282.09;13515.5;65;3.59558;3.35336;8078.16;6102.65;
142;0.340348;8240.88;16795;65;4.3506;4.04637;8078.16;6102.65;
325;1.01441;7781.42;1077.23;65;5.29303;4.92731;8078.16;6102.65;
490;1.16076;9778.25;19216.5;65;4.20308;3.92202;8078.16;6102.65;
364;0.948151;8654.25;19353.2;65;4.61613;4.29355;8078.16;6102.65;
170;0.594755;8447.24;2003.93;65;8.89533;8.41766;8078.16;6102.65;
137;0.610413;9116.14;18113;65;13.6181;13.0055;8078.16;6102.65;
640;1.60953;8054.27;15755;65;3.52224;3.2818;8078.16;6102.65;
116;0.230814;7628.02;12553.7;65;4.25057;3.96538;8078.16;6102.65;
266;0.761216;8405.29;14948.7;65;5.39017;5.03899;8078.16;6102.65;
386;0.833554;7501.72;12937.1;65;3.66908;3.42322;8078.16;6102.65;
500;2.01174;8517.65;13642.5;65;7.00291;6.61137;8078.16;6102.65;
391;1.99919;8853.7;1703.92;65;10.4604;9.84131;8078.16;6102.65;
273;0.759191;7927.11;12769.5;65;4.86751;4.53623;8078.16;6102.65;
662;4.8182;7883.67;14512.1;65;20.366;19.5528;8078.16;6102.65;
472;1.07867;8353.63;13909.4;65;4.10895;3.84859;8078.16;6102.65;
142;0.254704;7688.82;13311.7;65;3.51809;3.28199;8078.16;6102.65;
72;0.182134;7628.67;9507.81;65;6.00673;5.644;8078.16;6102.65;
117;0.97539;8474.27;16631.8;65;16.285;15.2136;8078.16;6102.65;
911;12.3275;7903.22;11641.2;65;19.1725;17.8563;8078.16;6102.65;
165;0.4592;7709.81;2583.3;65;5.183;4.78478;8078.16;6102.65;
261;0.817917;7833.37;12370.1;65;6.27072;5.8653;8078.16;6102.65;
519;4.09117;8267.97;11408.5;65;16.3101;15.4162;8078.16;6102.65;
197;0.376723;7770.8;12837;65;3.57775;3.33455;8078.16;6102.65;
204;1.29821;7913.91;15694.5;65;11.8316;11.0503;8078.16;6102.65;
172;0.335462;8070.03;15859.4;65;3.79899;3.51898;8078.16;6102.65;
534;1.24625;7967.44;15937.2;65;3.57064;3.33139;8078.16;6102.65;
292;1.02518;8401.03;1251.21;65;3.78398;3.43611;8078.16;6102.65;
637;5.303;8788.45;7089.03;65;20.6564;19.8554;8078.16;6102.65;
407;1.16488;8042.91;15605.2;65;4.46971;4.16756;8078.16;6102.65;
449;6.36465;8577.91;15849.6;65;16.9478;15.7862;8078.16;6102.65;
123;0.260153;8044.05;11468.7;65;5.064;4.75019;8078.16;6102.65;
445;1.45317;8987.05;1817.72;65;7.03075;6.64333;8078.16;6102.65;
187;0.438131;7839.96;11626.3;65;4.85042;4.53201;8078.16;6102.65;
462;1.04933;8800.36;1994.94;65;3.68658;3.44146;8078.16;6102.65;
154;0.451307;7909.98;7853.59;65;5.95024;5.5313;8078.16;6102.65;
304;1.0551;8522.73;16640.4;65;5.91333;5.50646;8078.16;6102.65;
549;2.2981;8327.36;1437.92;65;5.95682;5.54332;8078.16;6102.65;
215;0.551416;7949.29;15811;65;4.86114;4.4125;8078.16;6102.65;
348;0.732739;7935.85;12879.5;65;3.64852;3.4074;8078.16;6102.65;
130;0.218765;7703.07;12175.7;65;3.49001;3.25639;8078.16;6102.65;
434;2.81574;8658.48;2616.28;65;14.9786;14.2536;8078.16;6102.65;
102;0.195326;8356.21;1672.73;65;3.52292;3.28636;8078.16;6102.65;
369;2.12599;7819.62;13766.7;65;20.5904;19.8608;8078.16;6102.65;
311;1.09142;8502.9;14075.6;65;5.96716;5.58715;8078.16;6102.65;
709;2.07055;8162.12;8036.23;65;6.24958;5.68311;8078.16;6102.65;
227;0.536124;8763.56;15169.6;65;4.6836;4.31988;8078.16;6102.65;
105;0.325363;8541.16;14811.7;65;7.65275;7.23897;8078.16;6102.65;
502;1.15964;8489.18;13578;65;3.78535;3.55042;8078.16;6102.65;
294;0.79149;8646.5;16370.9;65;4.76236;4.44216;8078.16;6102.65;
87;0.146092;8061.6;14615.8;65;3.65;3.41457;8078.16;6102.65;
646;2.58837;8524.87;6901.25;65;7.01996;6.62625;8078.16;6102.65;
623;1.46031;8531.67;16935.1;65;3.48153;3.24585;8078.16;6102.65;
436;0.993611;8371.74;16503;65;3.55228;3.30256;8078.16;6102.65;
189;0.715182;10055.8;22145.9;65;7.92124;7.40286;8078.16;6102.65;
427;1.22342;8081.26;5881.4;65;4.80288;4.48251;8078.16;6102.65;
252;0.561423;8544.68;7492.32;65;4.03745;3.77871;8078.16;6102.65;
283;0.631947;7713.71;11437.7;65;4.05514;3.77524;8078.16;6102.65;
121;0.355924;7755.71;8251.21;65;8.53007;7.89859;8078.16;6102.65;
122;0.26303;7971.46;12186.4;65;4.74333;4.39648;8078.16;6102.65;
317;1.32843;8035.4;10794.1;65;10.9651;10.3798;8078.16;6102.65;
486;1.31377;9314.52;1645.77;65;3.75188;3.50223;8078.16;6102.65;
451;1.60325;9061.43;2854.78;65;6.8674;6.47195;8078.16;6102.65;
490;1.18813;8783.6;1882.77;65;3.53846;3.29242;8078.16;6102.65;
142;0.256358;8141.68;13823.9;65;4.11096;3.83594;8078.16;6102.65;
155;0.630716;9403.33;18495.2;65;13.3148;12.7198;8078.16;6102.65;
915;2.53559;7998.44;15150.1;65;3.50549;3.2735;8078.16;6102.65;
291;0.600261;8102.86;13486.7;65;3.58615;3.34135;8078.16;6102.65;
167;0.724641;8292.75;1333.16;65;7.44963;6.67221;8078.16;6102.65;
239;0.49299;8554.17;16596;65;3.75545;3.48682;8078.16;6102.65;
289;0.749941;7837.3;1101.34;65;7.70186;7.41315;8078.16;6102.65;
600;4.85029;8041.03;15155.4;65;16.2822;15.2278;8078.16;6102.65;
196;0.370894;8442.19;14832.9;65;3.67091;3.41053;8078.16;6102.65;
507;1.77759;8942.35;2764.27;65;6.13369;5.73529;8078.16;6102.65;
231;0.444799;8103.05;12509.4;65;3.44922;3.21715;8078.16;6102.65;
796;5.11213;8288.82;15701.7;65;13.0689;12.4641;8078.16;6102.65;
284;0.540268;8283.14;13262.2;65;3.51219;3.25217;8078.16;6102.65;
878;3.21146;8448.63;12992.1;65;5.3582;5.00429;8078.16;6102.65;
207;0.815126;7551.76;5157.93;65;8.94703;8.42116;8078.16;6102.65;
518;1.23296;8056.94;12350.9;65;3.98903;3.73141;8078.16;6102.65;
508;2.04127;9329.99;1119.9;65;11.0215;10.5427;8078.16;6102.65;
670;1.69637;8866.68;2774.38;65;3.80593;3.55795;8078.16;6102.65;
181;0.957546;8265.88;15470;65;21.6604;20.9639;8078.16;6102.65;
106;0.260402;7811.85;12546.4;65;5.60822;5.27012;8078.16;6102.65;
149;0.454529;8113.59;12218;65;3.99218;3.6505;8078.16;6102.65;
100;0.190156;7639.3;12460.6;65;4.00019;3.74004;8078.16;6102.65;
370;1.27588;8449.83;15356;65;8.51295;8.03984;8078.16;6102.65;
231;0.454227;7805.86;13028.1;65;3.63937;3.37845;8078.16;6102.65;
121;0.214859;8037.38;8562.99;65;3.51711;3.24781;8078.16;6102.65;
364;2.15505;8815.55;1710.34;65;16.0515;15.2315;8078.16;6102.65;
379;0.78588;7750.47;3895.48;65;3.56605;3.329;8078.16;6102.65;
671;1.71917;8050.1;12994.4;65;3.64881;3.40733;8078.16;6102.65;
905;4.16288;8790.77;3236.37;65;7.32821;6.8982;8078.16;6102.65;
367;2.14053;8594.52;3164.52;65;15.3755;14.6122;8078.16;6102.65;
750;2.75223;8117.71;13818.8;65;5.28647;4.92303;8078.16;6102.65;
79;0.157087;7629.31;12223.5;65;3.5926;3.34865;8078.16;6102.65;
263;0.686589;8136.04;12302.3;65;4.68993;4.36281;8078.16;6102.65;
218;1.08458;8347.79;13080.2;65;12.6538;12.0807;8078.16;6102.65;
274;1.38312;8210.26;12524.2;65;11.0613;10.3855;8078.16;6102.65;
109;0.303486;8640.53;16111.2;65;5.26511;4.91352;8078.16;6102.65;
363;2.61751;8253.83;15193.1;65;15.5871;14.5296;8078.16;6102.65;
95;0.460908;7851.77;13999.8;65;5.87365;5.51319;8078.16;6102.65;
236;0.53687;7867.06;5461.61;65;4.26298;3.87621;8078.16;6102.65;
157;0.351417;8253.33;13595;65;3.70939;3.46366;8078.16;6102.65;
268;0.572687;7969.19;12657;65;3.73144;3.37602;8078.16;6102.65;
109;0.363789;7862.64;10555.2;65;8.36076;7.86942;8078.16;6102.65;
664;1.91158;8102.09;10628;65;4.15784;3.83943;8078.16;6102.65;
683;2.15287;8769.14;14126.6;65;4.31565;4.02302;8078.16;6102.65;
2145;8.64524;7913.61;934.337;65;4.36369;4.06269;8078.16;6102.65;
301;0.794698;8245.33;14339.7;65;4.33576;4.00312;8078.16;6102.65;
262;0.6989;8636.33;14194.6;65;4.76254;4.43061;8078.16;6102.65;
329;1.72876;9017.18;1372.58;65;12.6308;12.0655;8078.16;6102.65;
1167;3.53937;8317.09;4686.17;65;3.84294;3.4529;8078.16;6102.65;
247;0.624144;7641.87;12301.5;65;4.24678;3.83004;8078.16;6102.65;
425;1.08112;9529.92;20978.6;65;4.53979;4.21118;8078.16;6102.65;
173;0.683312;8279.5;12896.2;65;9.55916;8.85746;8078.16;6102.65;
537;4.59812;9340.49;20922.5;65;14.6443;13.8806;8078.16;6102.65;
144;0.490514;8852.04;2252.81;65;7.76988;7.35012;8078.16;6102.65;
361;1.13262;8769.13;16165.2;65;6.352;5.88158;8078.16;6102.65;
463;1.33304;8030.56;1902.91;65;4.64562;4.3389;8078.16;6102.65;
680;1.69063;8581.78;1927.09;65;3.58079;3.31582;8078.16;6102.65;
198;1.11984;8271.72;16286.1;65;14.4896;13.7351;8078.16;6102.65;
243;0.467655;8197.09;13925.8;65;3.62593;3.33941;8078.16;6102.65;
647;3.37616;8853.75;2285.25;65;10.9536;10.2989;8078.16;6102.65;
339;1.8019;8507.75;15104.9;65;10.8024;10.0774;8078.16;6102.65;
331;1.27381;8110.71;15448.7;65;5.63216;5.27282;8078.16;6102.65;
96;0.178583;7828.86;12053.7;65;4.1057;3.80397;8078.16;6102.65;
664;4.16369;10128.2;1795.91;65;15.737;15.0158;8078.16;6102.65;
335;0.682282;7859.25;13698.9;65;3.58484;3.34318;8078.16;6102.65;
632;1.58923;8099.81;16296.8;65;7.82053;7.55676;8078.16;6102.65;
931;3.33524;8597.06;16778.7;65;4.64178;4.32978;8078.16;6102.65;
629;5.18811;8815.45;2968.71;65;15.765;14.7512;8078.16;6102.65;
119;0.540955;8620.77;9999.92;65;8.98278;8.50524;8078.16;6102.65;
95;0.189519;8232.46;13373.6;65;3.71496;3.45585;8078.16;6102.65;
683;2.1447;8562.03;16005.8;65;5.15504;4.70903;8078.16;6102.65;
298;1.05243;8068.51;13278.1;65;7.6485;7.14617;8078.16;6102.65;
111;0.211082;7548.06;11140.4;65;3.96991;3.6951;8078.16;6102.65;
154;0.555032;7863.9;10594;65;9.3015;8.80376;8078.16;6102.65;
159;0.439886;7963.15;11212.6;65;8.02913;7.62581;8078.16;6102.65;
147;0.475323;7302.74;6796.81;65;9.03075;8.54694;8078.16;6102.65;
898;5.99702;8112.84;11930.5;65;16.1411;15.4081;8078.16;6102.65;
142;0.363972;8373.89;13064.8;65;5.54445;5.19746;8078.16;6102.65;
205;0.794004;7954.04;615.431;65;8.98849;8.51394;8078.16;6102.65;
141;0.354037;8102.86;12525.6;65;4.81847;4.52815;8078.16;6102.65;
568;4.683;8315.97;12843.2;65;21.4416;20.5467;8078.16;6102.65;
487;1.11605;8107.93;11394.4;65;3.60605;3.34484;8078.16;6102.65;
128;0.71637;8292.71;14590.6;65;15.0925;14.426;8078.16;6102.65;
459;1.29731;8083.07;12355.3;65;4.33662;4.02684;8078.16;6102.65;
