RRT | Iteracoes;TempoRRT;ComprimentoRRT;InimigosRRT;A* | Celulas;TempoA;Grafo;ComprimentoA;InimigosA;Leaf Size = 500;Numero maximo iteracoes = 2000;Distancia minima destino = 360[mm];Distancia avanco base = 360[mm];
442;4.90515;8010.56;3088.76;65;17.4605;16.3818;8078.16;6102.65;
615;1.72532;8917.25;1331.72;65;4.27015;3.97861;8078.16;6102.65;
209;0.415895;7916.72;10897.8;65;3.55354;3.30312;8078.16;6102.65;
117;0.410831;7619.38;6862.55;65;8.10004;7.62896;8078.16;6102.65;
816;3.37986;7634.74;11738.7;65;5.6305;5.2825;8078.16;6102.65;
240;0.792412;8137.98;11477.7;65;6.65243;6.20341;8078.16;6102.65;
212;0.407207;8227.7;941.644;65;3.68382;3.43338;8078.16;6102.65;
193;0.614552;8285.65;658.922;65;5.24774;4.89059;8078.16;6102.65;
154;0.335453;8451.12;16336.5;65;4.76078;4.47023;8078.16;6102.65;
96;0.308631;7872.79;12162.5;65;8.94088;8.47378;8078.16;6102.65;
609;1.5188;8090.44;13464.2;65;3.55219;3.27479;8078.16;6102.65;
453;3.03107;8625.34;13009.7;65;16.8982;16.1637;8078.16;6102.65;
248;1.04449;8754.4;1289.12;65;8.1128;7.61564;8078.16;6102.65;
481;1.19224;8333.8;3814.43;65;4.07158;3.79091;8078.16;6102.65;
596;3.61338;8524.39;3659.82;65;13.7985;13.0446;8078.16;6102.65;
444;1.88339;8208.51;13808.7;65;7.01298;6.37843;8078.16;6102.65;
107;0.195184;8065.49;14711.3;65;3.56297;3.29814;8078.16;6102.65;
114;0.509726;8189.92;12509.2;65;6.64322;6.15698;8078.16;6102.65;
119;0.193953;7633.2;13522.7;65;3.5733;3.27732;8078.16;6102.65;
279;1.86842;8446.04;17637.2;65;16.5302;15.7671;8078.16;6102.65;
649;1.94139;8361.59;13171.1;65;4.44301;4.07649;8078.16;6102.65;
117;0.268251;7842;14333.9;65;5.04953;4.72436;8078.16;6102.65;
219;1.06219;7863.3;11444.6;65;11.765;11.1864;8078.16;6102.65;
519;2.49088;7786.11;14282.4;65;9.55442;8.97994;8078.16;6102.65;
287;0.961085;9069.96;1644.93;65;6.70503;6.28026;8078.16;6102.65;
160;0.665981;8901.46;1703.85;65;9.43991;8.86702;8078.16;6102.65;
574;2.28565;8037.43;12538.1;65;5.68041;5.27747;8078.16;6102.65;
293;0.978846;7917.59;13035.2;65;5.67808;5.28409;8078.16;6102.65;
258;1.80756;7658.37;15292.4;65;14.5325;13.6392;8078.16;6102.65;
148;0.268727;8455.09;13768.5;65;3.52253;3.27901;8078.16;6102.65;
312;2.79233;8004.49;12593.1;65;15.8136;14.7723;8078.16;6102.65;
486;1.11325;7860.83;15394.9;65;3.55528;3.31352;8078.16;6102.65;
125;0.216614;8031.78;15643.5;65;3.54601;3.30528;8078.16;6102.65;
548;1.40753;8166.52;12975.2;65;3.55048;3.30983;8078.16;6102.65;
737;2.11866;8555.02;17842.5;65;4.04248;3.77331;8078.16;6102.65;
907;2.86967;7926.74;11897.2;65;4.11009;3.82814;8078.16;6102.65;
1340;9.03102;9783.96;21955.1;65;13.1569;12.5925;8078.16;6102.65;
112;0.690265;8386.31;1895.49;65;9.59572;9.08468;8078.16;6102.65;
941;2.69207;8471.29;752.022;65;3.52583;3.28871;8078.16;6102.65;
213;0.422714;8177.51;14964.4;65;3.66217;3.39287;8078.16;6102.65;
150;0.248478;7676.85;9628.55;65;3.60263;3.34213;8078.16;6102.65;
89;0.171135;7814.77;12945.7;65;3.78705;3.53142;8078.16;6102.65;
643;1.64991;8859.15;2740.85;65;3.58853;3.34341;8078.16;6102.65;
172;0.307796;8249.28;13756.1;65;3.64484;3.39185;8078.16;6102.65;
937;2.62718;8243.75;13554.5;65;3.64483;3.3994;8078.16;6102.65;
313;0.667608;8683.93;2817.24;65;3.66475;3.40884;8078.16;6102.65;
455;1.06926;8269.82;17204.6;65;3.69788;3.43626;8078.16;6102.65;
1358;4.39966;7655.62;12283;65;3.93806;3.65164;8078.16;6102.65;
407;2.86961;7534.89;15640.2;65;16.8166;15.9336;8078.16;6102.65;
698;1.82134;8760.31;1797.79;65;3.61548;3.36739;8078.16;6102.65;
299;3.19914;8751.22;14451.1;65;20.0191;18.3835;8078.16;6102.65;
228;0.544778;8344.26;15991.8;65;4.60901;4.30546;8078.16;6102.65;
315;1.31304;8113.6;11342.4;65;8.27286;7.80025;8078.16;6102.65;
112;0.192607;7833.68;8763.87;65;3.59065;3.3413;8078.16;6102.65;
135;0.877773;7773.01;13500.8;65;16.139;15.1953;8078.16;6102.65;
747;2.08757;7713.39;11546;65;3.92218;3.67554;8078.16;6102.65;
168;0.283751;8167.72;16634.7;65;3.53451;3.29323;8078.16;6102.65;
100;0.570414;8854.3;14927;65;15.3558;14.4818;8078.16;6102.65;
376;0.809898;9183.54;1455.77;65;3.47178;3.23619;8078.16;6102.65;
663;2.27052;8175.26;3780.29;65;5.84208;5.43766;8078.16;6102.65;
94;0.428788;7916.27;11687.8;65;9.93648;9.25982;8078.16;6102.65;
569;1.58036;7939.29;14853.4;65;3.92142;3.64847;8078.16;6102.65;
888;4.81138;8502.84;15291.6;65;9.62708;9.07051;8078.16;6102.65;
95;0.174555;8000.6;13917;65;3.51682;3.27903;8078.16;6102.65;
901;4.31455;8567.27;17756.9;65;7.56836;7.14464;8078.16;6102.65;
182;0.332092;7641.3;12962.3;65;4.19591;3.93125;8078.16;6102.65;
132;0.222063;8923.27;18457.2;65;3.66366;3.41781;8078.16;6102.65;
378;0.821257;8839.58;3599.97;65;3.65606;3.4003;8078.16;6102.65;
685;1.96024;9073.75;17044.5;65;4.03843;3.76127;8078.16;6102.65;
491;1.3505;8208.5;15127.6;65;4.03753;3.76071;8078.16;6102.65;
232;0.415375;8383.05;1526.34;65;3.49413;3.25143;8078.16;6102.65;
218;1.40343;7533.59;10101.1;65;15.9472;15.1187;8078.16;6102.65;
929;2.58928;8625.26;2661.23;65;3.52707;3.28924;8078.16;6102.65;
483;1.84603;7879.17;13781;65;6.40484;5.96678;8078.16;6102.65;
570;3.26069;8646.25;16025.4;65;13.4829;12.8351;8078.16;6102.65;
106;0.181964;8133.49;14781;65;3.51795;3.2754;8078.16;6102.65;
182;0.534254;8945.22;1526.43;65;5.25927;4.90663;8078.16;6102.65;
625;1.47892;8629.06;15451;65;3.55462;3.29716;8078.16;6102.65;
529;2.59731;8377.64;15964.6;65;5.72813;5.36486;8078.16;6102.65;
662;2.09042;7579.27;3708.26;65;5.00008;4.6854;8078.16;6102.65;
152;0.784051;9022.06;3314.03;65;16.1103;15.5133;8078.16;6102.65;
100;0.170594;7623.64;11542.2;65;3.59904;3.34565;8078.16;6102.65;
134;0.385739;8552.88;17220.1;65;6.2517;5.83007;8078.16;6102.65;
222;0.456664;8597.06;14324.3;65;3.52515;3.27334;8078.16;6102.65;
594;3.18745;8591.7;1408.38;65;10.8384;10.1665;8078.16;6102.65;
456;1.02942;7751.68;11072.8;65;3.49414;3.25311;8078.16;6102.65;
286;0.775421;9011.49;7382.35;65;5.18722;4.79465;8078.16;6102.65;
259;0.522859;8129.26;11077.6;65;3.57457;3.31714;8078.16;6102.65;
212;1.28863;8098.22;4033.59;65;14.1902;13.3803;8078.16;6102.65;
169;0.765231;7984.86;14832.1;65;9.09449;8.48196;8078.16;6102.65;
498;1.45175;8349.89;11838.4;65;4.5508;4.22118;8078.16;6102.65;
556;4.3579;8591.84;15648.5;65;16.1286;15.156;8078.16;6102.65;
382;1.77848;9233.7;2590.45;65;8.54606;8.0436;8078.16;6102.65;
795;2.3243;8271.59;16545;65;4.06855;3.79291;8078.16;6102.65;
152;0.572242;8354.62;15815.8;65;10.5171;9.89564;8078.16;6102.65;
441;1.00512;8315.89;911.304;65;3.57265;3.33117;8078.16;6102.65;
199;0.372824;8017.84;14529.3;65;3.5832;3.33414;8078.16;6102.65;
400;2.09149;8628.8;2208.32;65;7.75434;7.26159;8078.16;6102.65;
189;0.420303;8043.98;15229;65;3.93277;3.66348;8078.16;6102.65;
447;2.4218;7506.05;13213.9;65;11.7686;11.2255;8078.16;6102.65;
250;1.97254;7926.22;7373.09;65;11.9698;11.1873;8078.16;6102.65;
798;2.21541;9168.65;2912.57;65;4.12686;3.82278;8078.16;6102.65;
149;0.541899;7632.71;12236.1;65;8.05555;7.53801;8078.16;6102.65;
736;1.84071;7859.22;13019.1;65;3.4992;3.25478;8078.16;6102.65;
768;1.93177;8811.93;18108.7;65;3.55385;3.30711;8078.16;6102.65;
360;1.5986;8162.14;10164.4;65;8.4107;7.90544;8078.16;6102.65;
579;1.47626;8970.7;1696.21;65;3.52049;3.28456;8078.16;6102.65;
109;0.197851;7813.68;12647.6;65;3.52934;3.28305;8078.16;6102.65;
682;4.07879;7595.87;12101.7;65;12.1314;11.5665;8078.16;6102.65;
239;0.467208;8432.69;1065.03;65;3.51647;3.2405;8078.16;6102.65;
218;0.499285;8734.43;4512.58;65;3.59656;3.34785;8078.16;6102.65;
778;2.68045;9341.02;2904.98;65;5.16504;4.78749;8078.16;6102.65;
302;0.620297;8571.43;1686.64;65;3.50326;3.26468;8078.16;6102.65;
376;0.816894;8676.37;2266.02;65;3.5259;3.28454;8078.16;6102.65;
143;0.240595;8242.02;12521.4;65;3.46637;3.22896;8078.16;6102.65;
769;1.96212;8626.85;16073.9;65;3.52051;3.27646;8078.16;6102.65;
98;0.908022;8000.73;13948.7;65;16.0115;14.9402;8078.16;6102.65;
575;2.81234;8188.72;14816.9;65;8.25782;7.7678;8078.16;6102.65;
176;0.314806;8510.65;16453.7;65;3.62294;3.37532;8078.16;6102.65;
751;1.88411;8564.94;4770.29;65;3.513;3.26743;8078.16;6102.65;
76;0.277753;8149.4;14683.4;65;8.0484;7.52955;8078.16;6102.65;
873;3.84125;8592.29;16647.3;65;7.19531;6.73261;8078.16;6102.65;
76;0.161119;7677.45;11058.9;65;4.0793;3.79691;8078.16;6102.65;
382;0.854322;8344.28;12510.3;65;3.58576;3.33704;8078.16;6102.65;
210;0.413846;7761.69;11779.9;65;3.82171;3.56642;8078.16;6102.65;
315;0.9422;8270.98;1469.91;65;5.19383;4.83143;8078.16;6102.65;
176;0.341532;8566.39;9230.88;65;3.75585;3.49249;8078.16;6102.65;
449;0.997517;8554.36;14925.7;65;3.46263;3.2175;8078.16;6102.65;
1318;6.81634;8726.95;1349.44;65;8.55563;8.05588;8078.16;6102.65;
130;0.392617;7554.04;12987.5;65;7.04063;6.60501;8078.16;6102.65;
279;0.668134;9046.33;19588.1;65;4.10933;3.78203;8078.16;6102.65;
69;0.164898;7577.33;11772.5;65;4.68288;4.36305;8078.16;6102.65;
131;0.465484;8270.63;15335.5;65;8.28485;7.80724;8078.16;6102.65;
297;0.771917;7942.08;13502.6;65;5.477;5.1055;8078.16;6102.65;
529;1.29435;8178.26;6305.47;65;3.57322;3.33308;8078.16;6102.65;
381;0.797277;8133.04;13879.4;65;5.11072;4.74897;8078.16;6102.65;
202;0.385354;8311.26;13617.9;65;3.61513;3.35721;8078.16;6102.65;
394;2.16923;8006.98;13439.5;65;12.9808;12.3675;8078.16;6102.65;
188;0.902675;8006.46;15714.8;65;11.5784;10.9913;8078.16;6102.65;
318;0.718618;8805.72;17412.2;65;3.98059;3.67445;8078.16;6102.65;
820;2.49704;8387.73;17432.9;65;4.03726;3.76029;8078.16;6102.65;
426;1.34;8611.67;1470.4;65;3.98216;3.68937;8078.16;6102.65;
1570;5.5798;9052.22;16803;65;4.03331;3.73887;8078.16;6102.65;
333;0.850215;8383.48;5385.44;65;3.97594;3.70223;8078.16;6102.65;
84;0.186954;7638.91;11999.1;65;4.02034;3.73574;8078.16;6102.65;
187;0.552937;8415.14;16788.5;65;4.33836;4.03413;8078.16;6102.65;
163;0.338557;8364.59;910.926;65;4.03806;3.74064;8078.16;6102.65;
339;0.741373;7850.58;13193.5;65;3.88763;3.6155;8078.16;6102.65;
229;0.453909;8113.01;11945.1;65;3.65934;3.41592;8078.16;6102.65;
132;0.409051;8462.2;13833.5;65;6.0782;5.58684;8078.16;6102.65;
279;0.989831;7760.19;13469.1;65;6.47602;6.06058;8078.16;6102.65;
446;1.01394;8336.94;13322.6;65;3.59583;3.33609;8078.16;6102.65;
427;1.89915;8573.01;15184;65;7.73035;7.24944;8078.16;6102.65;
668;2.56376;8836.97;17936.6;65;7.41166;6.96992;8078.16;6102.65;
1156;7.121;7325.71;14844.7;65;9.8795;9.30886;8078.16;6102.65;
122;0.295645;7973.77;1683.75;65;5.08528;4.74005;8078.16;6102.65;
766;2.29118;7996.03;12479.5;65;3.93583;3.6551;8078.16;6102.65;
83;0.205581;8677.15;1822.68;65;4.4492;4.11155;8078.16;6102.65;
143;0.324398;8412.11;9115.96;65;4.40113;4.10096;8078.16;6102.65;
916;3.29804;7907.91;14866.6;65;4.44019;4.139;8078.16;6102.65;
1017;4.61862;8789.81;15276.2;65;5.25172;4.8931;8078.16;6102.65;
563;2.01681;8449.99;14666.8;65;5.43445;5.05356;8078.16;6102.65;
186;0.612868;8405.4;17350.7;65;6.02785;5.52914;8078.16;6102.65;
514;1.84341;7944.25;12754;65;6.86291;6.42157;8078.16;6102.65;
166;0.419509;7769.98;13094.4;65;6.39498;5.98178;8078.16;6102.65;
297;1.9999;8143.18;12732.2;65;16.2186;15.3804;8078.16;6102.65;
128;0.214293;8857.09;17305.8;65;3.61015;3.33536;8078.16;6102.65;
156;0.586469;7799.28;1205.46;65;8.02777;7.53903;8078.16;6102.65;
213;1.07762;8127.25;13705;65;9.50497;8.88551;8078.16;6102.65;
380;1.03842;8866.67;1746.18;65;4.49807;4.17309;8078.16;6102.65;
929;2.85355;8744.77;2387.15;65;3.98496;3.71935;8078.16;6102.65;
805;4.70008;8624.81;13258.3;65;12.7792;12.1565;8078.16;6102.65;
317;0.731662;8271.35;13793;65;3.60553;3.36382;8078.16;6102.65;
142;0.255418;7690.51;13454.7;65;3.54233;3.28356;8078.16;6102.65;
567;1.39236;7781.08;12900.5;65;3.5907;3.35424;8078.16;6102.65;
700;1.82482;9000.58;16013.7;65;3.79426;3.5328;8078.16;6102.65;
84;0.5214;7968.49;13771.3;65;14.4445;13.7039;8078.16;6102.65;
135;0.301286;7829.19;15597.9;65;4.40435;4.04535;8078.16;6102.65;
92;0.428928;8300.83;1780.57;65;7.40379;6.82927;8078.16;6102.65;
985;4.37376;8195.12;11276.8;65;7.91857;7.46778;8078.16;6102.65;
365;2.62854;8003.77;13547;65;16.9285;16.093;8078.16;6102.65;
176;0.671571;8843.69;15082.6;65;8.61089;8.09781;8078.16;6102.65;
170;0.987687;8319.72;17493.2;65;18.3231;17.5709;8078.16;6102.65;
153;0.290511;7769.47;11932.1;65;3.5849;3.32055;8078.16;6102.65;
126;0.229155;8064.73;16353.3;65;3.60908;3.35621;8078.16;6102.65;
113;0.484261;9388.42;15639.5;65;15.3707;14.5405;8078.16;6102.65;
715;1.81334;8926.21;13986.7;65;3.61401;3.35494;8078.16;6102.65;
107;0.432118;8836.84;1442.85;65;8.88959;8.38961;8078.16;6102.65;
54;0.120123;8113.87;14614.1;65;3.98319;3.6907;8078.16;6102.65;
127;0.261774;7724.06;14188;65;3.94456;3.65597;8078.16;6102.65;
428;1.90819;7809.68;12557.2;65;8.59677;8.10037;8078.16;6102.65;
94;0.268652;7711.92;12041.8;65;4.82819;4.42554;8078.16;6102.65;
153;1.12274;8038.64;12350.3;65;12.9516;12.2429;8078.16;6102.65;
103;0.462529;7719.49;3873.62;65;9.85043;9.25406;8078.16;6102.65;
799;2.67208;8121.64;12011.7;65;4.43845;4.12648;8078.16;6102.65;
513;3.88148;8462.45;1393.05;65;16.2582;15.2357;8078.16;6102.65;
881;2.87037;9020.81;1033.66;65;3.68541;3.38043;8078.16;6102.65;
208;0.860894;8596.33;3017.79;65;11.2402;10.6773;8078.16;6102.65;
181;0.368775;9265.49;1560.16;65;3.68492;3.43802;8078.16;6102.65;
336;0.853698;8819.4;3889.31;65;3.68447;3.42895;8078.16;6102.65;
