RRT | Iteracoes;TempoRRT;ComprimentoRRT;InimigosRRT;A* | Celulas;TempoA;Grafo;ComprimentoA;InimigosA;Leaf Size = 5;Numero maximo iteracoes = 2000;Distancia minima destino = 360[mm];Distancia avanco base = 360[mm];
280;0.539065;8321.41;3657.05;65;3.89396;3.61568;8078.16;6102.65;
285;1.01038;7879.87;4008.89;65;9.06248;8.55382;8078.16;6102.65;
496;1.75084;9116.38;16248.1;65;9.33403;8.81173;8078.16;6102.65;
616;2.5868;7608.37;12570.6;65;11.4824;10.8461;8078.16;6102.65;
188;0.326143;8187.97;14349.7;65;3.57888;3.27994;8078.16;6102.65;
88;0.145244;7811.79;11785.1;65;3.48836;3.23506;8078.16;6102.65;
258;0.768588;8489.42;1292.85;65;6.92746;6.45476;8078.16;6102.65;
108;0.201853;8082.28;11320.6;65;3.61953;3.36937;8078.16;6102.65;
320;2.17694;8014.18;13470.1;65;17.9618;16.7788;8078.16;6102.65;
170;0.326803;7975.95;9739.25;65;4.18855;3.8929;8078.16;6102.65;
347;0.630218;8090.19;11951.2;65;3.72312;3.40583;8078.16;6102.65;
186;0.323104;8422.12;7784.19;65;3.72459;3.45784;8078.16;6102.65;
442;1.88597;8301.35;15864.1;65;11.6007;11.0039;8078.16;6102.65;
263;0.655384;7651.96;13305.4;65;3.74105;3.39443;8078.16;6102.65;
106;0.66094;7700.7;11241.9;65;25.2211;24.3858;8078.16;6102.65;
496;1.2655;7591.11;11473.1;65;5.11604;4.74547;8078.16;6102.65;
263;0.930966;7672.04;12965.6;65;8.13215;7.60172;8078.16;6102.65;
423;1.80245;7773.01;12923.7;65;12.2971;11.6348;8078.16;6102.65;
291;0.530798;8492.88;14912.3;65;3.57718;3.32054;8078.16;6102.65;
158;0.27866;7813.34;5161.12;65;3.79586;3.5231;8078.16;6102.65;
1023;3.80282;8498.03;12673.2;65;8.03019;7.50317;8078.16;6102.65;
96;0.185738;8306.4;719.325;65;3.60292;3.34359;8078.16;6102.65;
160;0.272967;8376.06;17036.2;65;3.57122;3.31462;8078.16;6102.65;
117;0.293893;8391.11;1544.1;65;6.30865;5.93539;8078.16;6102.65;
111;0.394715;7970.88;13126.8;65;10.9901;10.2105;8078.16;6102.65;
275;0.52685;8518.74;16543.2;65;4.05605;3.79152;8078.16;6102.65;
599;2.03725;9175.08;1373.16;65;8.15247;7.57442;8078.16;6102.65;
1650;3.33108;7892.24;16840.8;65;3.64611;3.34731;8078.16;6102.65;
366;1.12822;8586.89;16913;65;7.63901;7.1575;8078.16;6102.65;
233;0.403442;8519.25;14450.1;65;4.07812;3.7895;8078.16;6102.65;
480;1.7094;8796.27;16814.2;65;10.2396;9.73555;8078.16;6102.65;
108;0.363256;8536.75;14831.4;65;7.5517;7.09757;8078.16;6102.65;
158;0.275282;8380.2;1358.74;65;3.68001;3.42385;8078.16;6102.65;
217;0.815759;8832.38;15181.1;65;9.80562;9.2994;8078.16;6102.65;
91;0.576483;7847.06;13977.1;65;13.7949;12.9916;8078.16;6102.65;
123;0.456636;7611.18;11628.6;65;8.56588;8.07291;8078.16;6102.65;
288;1.10318;7691.6;13229.8;65;9.96793;9.44016;8078.16;6102.65;
117;0.207182;9085.82;1072.31;65;3.58478;3.31461;8078.16;6102.65;
1604;12.7364;10364;2300.72;65;18.1774;17.0018;8078.16;6102.65;
311;0.667306;7886.37;11402.4;65;4.54572;4.23788;8078.16;6102.65;
149;0.251723;8843.79;9325.89;65;4.06065;3.75716;8078.16;6102.65;
463;1.58564;7912;12363.2;65;10.1012;9.58929;8078.16;6102.65;
112;0.393903;7692.89;10979.1;65;8.10065;7.58738;8078.16;6102.65;
105;0.470802;7765.18;12998.8;65;12.6863;12.0651;8078.16;6102.65;
908;2.47454;8703.59;11834.4;65;5.71905;5.34998;8078.16;6102.65;
440;1.52199;7227.55;11412.1;65;8.54079;8.01829;8078.16;6102.65;
1050;1.92721;8928.23;17345.5;65;3.53838;3.27211;8078.16;6102.65;
193;0.334208;8297.96;1662.82;65;3.64981;3.37841;8078.16;6102.65;
366;0.769933;9584.02;2260.2;65;4.32454;3.98918;8078.16;6102.65;
437;0.838786;8520.06;15700.5;65;3.71338;3.44724;8078.16;6102.65;
420;0.720637;8342.41;13508.2;65;3.72383;3.4744;8078.16;6102.65;
112;0.210047;7777.21;11218.8;65;3.72937;3.45635;8078.16;6102.65;
204;1.7228;9016.72;2222.46;65;17.1241;15.9158;8078.16;6102.65;
624;1.23684;8021.38;15549.5;65;3.96126;3.65701;8078.16;6102.65;
141;0.255518;8190.21;1217.45;65;3.72988;3.46003;8078.16;6102.65;
310;0.809748;8147.29;3862.32;65;6.46802;6.09078;8078.16;6102.65;
282;0.458179;8435.03;16432.6;65;4.53727;4.25847;8078.16;6102.65;
127;0.221786;8128.24;14220.5;65;3.63578;3.36238;8078.16;6102.65;
702;1.35781;8964;15116.9;65;3.60617;3.34291;8078.16;6102.65;
352;2.96685;8328.69;13826.1;65;18.8359;17.5556;8078.16;6102.65;
484;0.92599;8171.29;16023.2;65;4.18344;3.89738;8078.16;6102.65;
1047;3.95032;8193.68;2060.86;65;10.4864;9.88074;8078.16;6102.65;
505;0.843521;7984.44;7573.11;65;3.62617;3.34336;8078.16;6102.65;
177;0.424669;7551.94;14949.7;65;5.34021;4.9731;8078.16;6102.65;
573;1.66743;8142.69;16530.4;65;6.18441;5.74743;8078.16;6102.65;
108;0.555118;7887.87;12360.1;65;14.5914;13.8347;8078.16;6102.65;
705;1.28232;7871.15;15342;65;4.23643;3.96023;8078.16;6102.65;
172;0.29151;8189.12;910.902;65;3.52957;3.28086;8078.16;6102.65;
654;3.19777;9576.55;3094.87;65;13.3556;12.7726;8078.16;6102.65;
385;0.97421;8980.49;1852.72;65;6.72917;6.32361;8078.16;6102.65;
251;0.488959;7914.21;16105.3;65;4.33281;3.6842;8078.16;6102.65;
131;0.260335;8514.54;9423.07;65;3.99446;3.70525;8078.16;6102.65;
386;1.29748;7868.69;12740.2;65;12.5159;11.9346;8078.16;6102.65;
277;1.38262;8273.62;1568.94;65;9.16185;8.64583;8078.16;6102.65;
125;0.248058;8030.86;5157.59;65;4.04001;3.74;8078.16;6102.65;
196;0.586218;8051.87;16339.5;65;7.63402;7.14898;8078.16;6102.65;
474;1.56091;8981.41;11291.8;65;12.8709;12.2888;8078.16;6102.65;
366;0.635785;8402.72;13006.6;65;3.58356;3.27164;8078.16;6102.65;
245;0.395799;8220.85;1199.01;65;3.71693;3.46114;8078.16;6102.65;
393;1.17903;8646.68;16981;65;7.62627;7.09977;8078.16;6102.65;
148;0.265697;7562.27;12167.1;65;3.70208;3.39815;8078.16;6102.65;
269;0.745983;8929.88;15936.8;65;5.36542;4.99059;8078.16;6102.65;
475;1.31569;7866.6;12482.9;65;5.74399;5.36527;8078.16;6102.65;
558;1.07066;8478.28;1436.44;65;3.56664;3.32049;8078.16;6102.65;
585;5.49204;8034.5;12075.6;65;15.7988;14.7286;8078.16;6102.65;
646;1.46471;8222.07;2671.32;65;4.73395;4.41506;8078.16;6102.65;
826;1.52684;7917.89;15650.5;65;3.69808;3.42128;8078.16;6102.65;
115;0.196708;7878.73;12740.3;65;3.76196;3.48959;8078.16;6102.65;
90;0.397705;7639.97;13016.2;65;6.3163;5.80237;8078.16;6102.65;
90;0.275276;8048.78;14165.5;65;6.32516;5.89865;8078.16;6102.65;
187;0.472212;8499.75;1082.1;65;5.63142;5.2481;8078.16;6102.65;
210;0.511203;7607.77;11170.1;65;5.72485;5.35004;8078.16;6102.65;
77;0.242287;8161.33;14949.1;65;6.74017;6.3213;8078.16;6102.65;
518;0.913676;7650.96;3985.79;65;3.60061;3.28749;8078.16;6102.65;
579;1.67338;7394.34;10683.9;65;6.03647;5.63533;8078.16;6102.65;
206;0.33618;7794.61;13221.8;65;3.7364;3.44415;8078.16;6102.65;
452;1.85888;8555.96;16426.7;65;11.6099;10.9663;8078.16;6102.65;
107;0.193162;8319.96;14317.9;65;3.62199;3.35209;8078.16;6102.65;
696;1.28307;8766.54;17562.4;65;3.59444;3.32393;8078.16;6102.65;
457;0.912031;9313.41;3719.05;65;4.42321;4.1164;8078.16;6102.65;
204;0.394998;9144.15;2209.73;65;4.44597;4.14644;8078.16;6102.65;
304;1.13434;7925.08;2028.11;65;9.90438;9.41373;8078.16;6102.65;
1035;5.5007;7870.01;13027.3;65;16.4436;15.5595;8078.16;6102.65;
272;0.501064;8295.68;2840.56;65;3.60311;3.31293;8078.16;6102.65;
528;3.52629;8616.56;17239.5;65;17.8379;16.6072;8078.16;6102.65;
690;1.29415;8572.95;16428.4;65;4.0739;3.79294;8078.16;6102.65;
842;2.68697;8957.78;16861.6;65;7.48939;6.99784;8078.16;6102.65;
323;0.730155;8257.35;13511.5;65;4.5918;4.26365;8078.16;6102.65;
359;0.778205;8831.29;1873.42;65;4.56665;4.18362;8078.16;6102.65;
244;1.36371;8610.57;1686.47;65;13.6522;12.7407;8078.16;6102.65;
519;1.31656;8148.92;9205.85;65;6.19873;5.87563;8078.16;6102.65;
274;0.557638;7944.97;13534.7;65;4.56268;4.2306;8078.16;6102.65;
152;0.484101;8819.28;18430.2;65;8.42393;7.91377;8078.16;6102.65;
95;0.166721;8352.54;13464.3;65;3.60368;3.32437;8078.16;6102.65;
760;2.80841;8852.36;7031.58;65;10.0129;9.45397;8078.16;6102.65;
230;0.941067;7586.92;8338.09;65;12.7592;11.769;8078.16;6102.65;
170;0.347269;7914.46;15866.7;65;4.78509;4.51349;8078.16;6102.65;
116;0.48242;7918.87;11801.2;65;9.91305;9.41084;8078.16;6102.65;
138;0.719909;8178.47;1361.84;65;19.5024;18.6877;8078.16;6102.65;
359;0.928529;8501.12;14703;65;5.57041;5.19567;8078.16;6102.65;
913;7.98083;8805.44;1360.02;65;17.6759;16.2903;8078.16;6102.65;
235;0.487282;8255.21;13520.3;65;4.43886;4.0973;8078.16;6102.65;
167;0.236515;7912.28;14571.3;65;3.73479;3.45945;8078.16;6102.65;
301;0.621913;7637.24;6641.91;65;4.46702;4.13101;8078.16;6102.65;
536;3.55665;7898.53;12459.7;65;22.1177;21.2491;8078.16;6102.65;
237;1.26605;8697.07;17420.6;65;12.8315;12.0905;8078.16;6102.65;
78;0.370639;7661.47;13949.5;65;11.2562;10.5569;8078.16;6102.65;
443;0.910656;7874.04;13078.3;65;3.98005;3.6724;8078.16;6102.65;
172;0.599635;7922.65;11783.4;65;11.3094;10.787;8078.16;6102.65;
153;0.273621;8098.72;4559.06;65;3.54318;3.29245;8078.16;6102.65;
537;1.15914;9189.13;3014.05;65;3.99662;3.6939;8078.16;6102.65;
903;4.27429;7441.73;8100.49;65;14.8103;14.1991;8078.16;6102.65;
416;0.71061;7671.97;13094.7;65;3.51941;3.24646;8078.16;6102.65;
226;1.22886;7867.04;12152.3;65;16.0514;15.2852;8078.16;6102.65;
388;1.38745;8604.81;14858.5;65;10.0544;9.50939;8078.16;6102.65;
173;0.309029;7795.59;12618.9;65;3.64373;3.34373;8078.16;6102.65;
449;1.00744;8557.96;15753.7;65;5.15659;4.82106;8078.16;6102.65;
97;0.165153;8305.98;15942.3;65;3.59077;3.33185;8078.16;6102.65;
310;0.542491;8394.55;10018.9;65;3.74743;3.47168;8078.16;6102.65;
842;1.58871;8078.4;1267.58;65;3.56966;3.30246;8078.16;6102.65;
100;0.332741;7784.06;11977.7;65;7.72375;7.18773;8078.16;6102.65;
710;4.96081;9665.43;20015.9;65;16.5881;15.5143;8078.16;6102.65;
343;0.680461;8877.03;2194.14;65;3.9632;3.68338;8078.16;6102.65;
438;1.54778;8607.07;1615.2;65;10.0215;9.49674;8078.16;6102.65;
702;1.22434;8089.82;14281.7;65;3.60965;3.32831;8078.16;6102.65;
347;0.762309;8306.87;1468.56;65;4.87775;4.5716;8078.16;6102.65;
665;1.29871;7793.13;11595.5;65;3.63705;3.34249;8078.16;6102.65;
252;0.726785;7906.77;13482.1;65;6.34234;5.94659;8078.16;6102.65;
751;2.31886;8349.99;9826.18;65;6.99841;6.58033;8078.16;6102.65;
126;0.444711;8216.85;11392;65;8.13621;7.64067;8078.16;6102.65;
138;0.256208;8031.19;7946.33;65;3.52095;3.24741;8078.16;6102.65;
429;0.952533;8019.63;14622.8;65;4.93974;4.57554;8078.16;6102.65;
253;0.424196;8038.83;9986.63;65;3.76505;3.48169;8078.16;6102.65;
357;0.6295;8340.91;14851.1;65;3.56838;3.32036;8078.16;6102.65;
315;1.07585;8704.46;17131;65;8.04939;7.5489;8078.16;6102.65;
1117;2.52192;9161.98;18504.5;65;3.77454;3.47797;8078.16;6102.65;
211;0.370637;8449.12;12842.2;65;3.71943;3.44134;8078.16;6102.65;
728;1.36142;8649.54;16908.9;65;3.54362;3.2828;8078.16;6102.65;
294;0.518655;7831.61;3610.02;65;3.62491;3.36979;8078.16;6102.65;
157;0.673353;7976.32;11223.9;65;11.7586;11.1705;8078.16;6102.65;
185;1.01191;8339.62;15022.1;65;13.577;12.9509;8078.16;6102.65;
300;0.548202;8672.91;18716.2;65;3.58192;3.32068;8078.16;6102.65;
1141;6.51092;8570.21;15379.9;65;15.4949;14.431;8078.16;6102.65;
221;0.66077;8182.69;12715.2;65;6.50328;6.06664;8078.16;6102.65;
422;0.728133;8437.91;2014.31;65;3.76103;3.48356;8078.16;6102.65;
264;1.18861;8563.06;2683.94;65;12.9718;12.3692;8078.16;6102.65;
328;0.582605;7992.75;13456.7;65;3.57012;3.30962;8078.16;6102.65;
801;2.01706;8760.61;1713.34;65;5.26173;4.89975;8078.16;6102.65;
403;1.26118;8587.92;14863.9;65;7.26048;6.77155;8078.16;6102.65;
372;0.730598;8719.04;15313;65;3.57254;3.29722;8078.16;6102.65;
251;0.446348;8475.45;14428.7;65;3.66115;3.37978;8078.16;6102.65;
297;0.685947;9265.12;1543.22;65;4.92686;4.61359;8078.16;6102.65;
357;0.625938;8103.58;14651.6;65;3.93662;3.65776;8078.16;6102.65;
816;2.27402;8001.24;5755.44;65;6.05396;5.65109;8078.16;6102.65;
1228;2.47894;7668.05;10977;65;3.91146;3.63119;8078.16;6102.65;
422;0.909689;7684.32;10920;65;4.58207;4.24816;8078.16;6102.65;
231;0.450604;8413.93;14412.1;65;3.97102;3.67496;8078.16;6102.65;
156;0.350564;7896.52;14970.5;65;4.90275;4.55959;8078.16;6102.65;
240;0.817659;7745.38;13110.5;65;9.06399;8.54322;8078.16;6102.65;
168;0.291897;8191.34;13376.2;65;3.641;3.38479;8078.16;6102.65;
531;1.70637;9525.69;1879.12;65;7.68263;7.20197;8078.16;6102.65;
128;0.219603;7560.11;13399.3;65;3.66309;3.3963;8078.16;6102.65;
234;0.925317;8075.55;12227.6;65;10.7292;10.1313;8078.16;6102.65;
172;0.43358;8339.13;14730.8;65;5.47087;5.14676;8078.16;6102.65;
135;0.469863;8176.7;13053.2;65;4.01506;3.75502;8078.16;6102.65;
460;2.37713;8031.01;14688.5;65;17.7984;17.1271;8078.16;6102.65;
214;0.366155;7759.03;13930.4;65;3.60037;3.344;8078.16;6102.65;
109;0.604137;8100.84;873.711;65;17.9225;17.2202;8078.16;6102.65;
108;0.194197;7652.63;12358;65;3.52228;3.26166;8078.16;6102.65;
164;0.871463;7764.17;7770.06;65;15.9995;15.3123;8078.16;6102.65;
237;0.492183;7618.47;5914.76;65;3.60855;3.33229;8078.16;6102.65;
137;0.287274;8650.65;2207.23;65;4.15202;3.87211;8078.16;6102.65;
388;1.52893;8447.49;15747;65;11.5398;10.9066;8078.16;6102.65;
56;0.213736;8682.01;1154.4;65;7.54775;7.11764;8078.16;6102.65;
188;0.370331;8134.58;1174.91;65;4.0421;3.71589;8078.16;6102.65;
211;0.473119;8619.24;2067.43;65;4.67584;4.36637;8078.16;6102.65;
643;2.0759;8272.96;13242.5;65;6.47848;5.91517;8078.16;6102.65;
617;1.30076;8609.88;17895.5;65;4.03603;3.74046;8078.16;6102.65;
195;0.395771;8470.33;13707.2;65;4.13182;3.78419;8078.16;6102.65;
463;1.7932;8191.52;2843.66;65;9.20334;8.68484;8078.16;6102.65;
