RRT | Iteracoes;TempoRRT;ComprimentoRRT;InimigosRRT;A* | Celulas;TempoA;Grafo;ComprimentoA;InimigosA;Leaf Size = 5;Numero maximo iteracoes = 2500;Distancia minima destino = 360[mm];Distancia avanco base = 360[mm];
39;0.066746;4979.44;20943.5;14;0.398239;0.350051;5104.2;5841.52;
27;0.091209;4758.59;20117.2;14;0.436638;0.404699;5104.2;5841.52;
394;0.664784;4535.44;13210;14;0.345651;0.319329;5104.2;5841.52;
219;0.507548;4515.31;19501.5;14;0.505737;0.470491;5104.2;5841.52;
446;0.805721;6007.21;10938.3;14;0.379917;0.329621;5104.2;5841.52;
24;0.090383;4154.3;20749.9;14;0.596558;0.554963;5104.2;5841.52;
633;1.32789;5389.75;15038.6;14;0.388913;0.359566;5104.2;5841.52;
58;0.23305;4500;18739.3;14;1.08444;0.996336;5104.2;5841.52;
157;1.23566;4784.37;11760.3;14;1.54371;1.44029;5104.2;5841.52;
313;0.629294;4995.2;21155.6;14;0.451252;0.416419;5104.2;5841.52;
223;0.381782;4974.75;20446.4;14;0.346479;0.320087;5104.2;5841.52;
189;0.672453;5171.57;14225.6;14;0.780511;0.726619;5104.2;5841.52;
25;0.077588;4586.4;8541.65;14;0.577873;0.535226;5104.2;5841.52;
21;0.057805;4633.2;16976.4;14;0.429855;0.398645;5104.2;5841.52;
50;0.158179;4750;18422.6;14;0.764019;0.70562;5104.2;5841.52;
52;0.144716;4994.93;19877.7;14;0.555278;0.517456;5104.2;5841.52;
148;0.389188;5326.62;12972;14;0.576698;0.535258;5104.2;5841.52;
334;0.843918;5359.26;15616;14;0.494748;0.456418;5104.2;5841.52;
197;0.649466;5335.18;10318.4;14;0.780861;0.714274;5104.2;5841.52;
27;0.092034;4755.03;17057.4;14;0.571129;0.516792;5104.2;5841.52;
96;0.373879;5261.53;16828.4;14;0.779211;0.713333;5104.2;5841.52;
446;3.62831;4583.89;18112.7;14;1.51936;1.39949;5104.2;5841.52;
33;0.05441;4368.4;24344.1;14;0.39786;0.366868;5104.2;5841.52;
514;4.19368;4971.56;21352.6;14;1.58245;1.46421;5104.2;5841.52;
459;0.963991;4762.18;12475.2;14;0.383143;0.353771;5104.2;5841.52;
190;0.347915;4763.76;18428.7;14;0.443797;0.412742;5104.2;5841.52;
1270;5.50775;5317.77;13116.1;14;0.820302;0.746991;5104.2;5841.52;
678;5.85403;6046.91;9159.52;14;1.50538;1.3934;5104.2;5841.52;
27;0.071268;4500;18430.9;14;0.439156;0.399233;5104.2;5841.52;
87;0.716178;4414.94;11180.9;14;1.49938;1.39935;5104.2;5841.52;
127;0.655007;4856.98;17224.3;14;1.14653;1.06276;5104.2;5841.52;
130;0.23516;4250;20130.5;14;0.349653;0.323124;5104.2;5841.52;
31;0.052381;4147.64;17629;14;0.353031;0.326344;5104.2;5841.52;
139;1.51268;5346.84;11145.8;14;2.46195;2.2252;5104.2;5841.52;
87;0.148497;4475.56;17412.2;14;0.363399;0.317269;5104.2;5841.52;
23;0.123971;4032.45;14371.6;14;0.846452;0.768779;5104.2;5841.52;
26;0.069088;4878.51;11953.6;14;0.398808;0.371661;5104.2;5841.52;
91;0.15498;5096.03;17835.3;14;0.348001;0.317886;5104.2;5841.52;
287;2.36231;5156.95;20586.2;14;1.54672;1.44178;5104.2;5841.52;
224;0.48285;4009.68;14656.3;14;0.527473;0.491113;5104.2;5841.52;
22;0.064545;4000;20311.8;14;0.558033;0.518437;5104.2;5841.52;
490;3.79911;5105.78;15675.4;14;1.68147;1.54652;5104.2;5841.52;
99;0.177519;5097.23;14236.2;14;0.44704;0.394739;5104.2;5841.52;
20;0.09298;4702.45;21054.4;14;0.670224;0.60783;5104.2;5841.52;
27;0.091236;4543.4;13924.9;14;0.567956;0.520972;5104.2;5841.52;
37;0.085629;4926.48;10829.1;14;0.482549;0.445633;5104.2;5841.52;
32;0.245626;4287.06;24825.6;14;1.70553;1.60248;5104.2;5841.52;
29;0.06627;5161.17;6311.25;14;0.375124;0.347929;5104.2;5841.52;
69;0.104165;5017.71;9537.6;14;0.367783;0.330112;5104.2;5841.52;
25;0.160071;4809.09;11330;14;1.25126;1.16323;5104.2;5841.52;
43;0.083245;4500.4;15409.8;14;0.340881;0.314842;5104.2;5841.52;
591;1.3265;5080.87;11403.1;14;0.437373;0.405992;5104.2;5841.52;
87;0.151846;5256.97;14357.4;14;0.346608;0.31882;5104.2;5841.52;
35;0.163218;5028.9;13344.1;14;0.796306;0.740751;5104.2;5841.52;
167;0.274026;5207.12;9131.84;14;0.347402;0.321182;5104.2;5841.52;
29;0.156609;4883.07;17193.2;14;1.09663;1.02256;5104.2;5841.52;
167;1.56054;4235.99;15478.6;14;1.5885;1.47957;5104.2;5841.52;
488;0.821811;4832.03;21593.1;14;0.370972;0.343344;5104.2;5841.52;
209;2.17059;4577.88;9785.76;14;2.07975;1.90525;5104.2;5841.52;
30;0.061391;4767.16;12360.4;14;0.355987;0.319041;5104.2;5841.52;
485;1.53156;4897.22;15120.4;14;0.878377;0.821911;5104.2;5841.52;
15;0.041637;4143.94;16472.8;14;0.344422;0.317574;5104.2;5841.52;
593;1.8908;4927.08;19275.5;14;0.655167;0.605199;5104.2;5841.52;
222;0.371168;4736.67;19403.9;14;0.343091;0.316245;5104.2;5841.52;
83;0.43617;4847.86;9233.86;14;1.14883;1.05573;5104.2;5841.52;
23;0.065749;4863.69;11749.3;14;0.371289;0.343902;5104.2;5841.52;
24;0.224909;4228.74;10994.2;14;1.60774;1.50419;5104.2;5841.52;
29;0.064074;5045.93;11329.3;14;0.340463;0.314505;5104.2;5841.52;
30;0.09187;4362.93;20372;14;0.636655;0.589707;5104.2;5841.52;
348;0.60617;4250;20558.7;14;0.356526;0.328064;5104.2;5841.52;
31;0.287695;4780.81;17506.9;14;1.7357;1.61885;5104.2;5841.52;
646;1.16849;5648.98;11771.2;14;0.363566;0.337413;5104.2;5841.52;
76;0.419359;5764.76;5005.32;14;1.11728;1.04124;5104.2;5841.52;
146;0.264475;4665.72;18643.9;14;0.340476;0.315109;5104.2;5841.52;
247;1.86058;5351.45;15984.7;14;1.56682;1.46275;5104.2;5841.52;
318;0.540511;4968.87;19272.6;14;0.347399;0.321634;5104.2;5841.52;
152;0.657785;4553.58;14954.1;14;0.818332;0.745871;5104.2;5841.52;
22;0.226905;4758.45;23138.5;14;1.62582;1.51971;5104.2;5841.52;
26;0.060261;4711.9;21166.6;14;0.394561;0.365774;5104.2;5841.52;
271;0.561331;5371.29;15016.9;14;0.43224;0.400174;5104.2;5841.52;
31;0.069104;3850.45;17984;14;0.396363;0.366151;5104.2;5841.52;
362;0.689111;4544.21;16544.8;14;0.395418;0.366613;5104.2;5841.52;
197;1.05093;5382.16;14392.3;14;1.16842;1.0927;5104.2;5841.52;
25;0.258636;4811.59;14675.7;14;1.52605;1.42564;5104.2;5841.52;
329;0.611977;5741.82;9789.6;14;0.383721;0.351761;5104.2;5841.52;
168;0.695243;4019.39;16359;14;0.85724;0.79813;5104.2;5841.52;
531;4.116;4500;18307.7;14;1.57442;1.46568;5104.2;5841.52;
98;0.637289;4325;18861.8;14;2.01671;1.89296;5104.2;5841.52;
201;0.900103;4932.54;14192.8;14;0.866197;0.803107;5104.2;5841.52;
38;0.070357;5101.82;20127.2;14;0.363231;0.33635;5104.2;5841.52;
23;0.065778;4227.92;11206.8;14;0.510196;0.474496;5104.2;5841.52;
86;0.640505;5321.26;14989.2;14;1.51783;1.4169;5104.2;5841.52;
35;0.075788;4532;19508.4;14;0.370578;0.338581;5104.2;5841.52;
24;0.225024;4164.64;21477.9;14;1.59708;1.4943;5104.2;5841.52;
32;0.189248;5059.2;11242.1;14;1.16198;1.0803;5104.2;5841.52;
997;3.17962;4500.95;14826.4;14;0.716505;0.655533;5104.2;5841.52;
119;0.972481;4854.49;18256.2;14;1.85983;1.7371;5104.2;5841.52;
29;0.063164;4995.04;10276.6;14;0.347688;0.321749;5104.2;5841.52;
454;2.24196;4887.66;15540.6;14;0.860499;0.795009;5104.2;5841.52;
37;0.061312;4500;19218.2;14;0.396575;0.367769;5104.2;5841.52;
213;0.750809;4658.41;15395.6;14;0.702605;0.653423;5104.2;5841.52;
22;0.247658;4665.36;12235.6;14;1.62326;1.51568;5104.2;5841.52;
846;1.75052;4994.94;17576.9;14;0.410157;0.363203;5104.2;5841.52;
405;1.00503;4492.9;18809.6;14;0.595036;0.557788;5104.2;5841.52;
32;0.295758;4247.17;16707.1;14;1.54036;1.42024;5104.2;5841.52;
24;0.041862;4500;18844.3;14;0.411268;0.383374;5104.2;5841.52;
37;0.306098;4859.86;10719.4;14;1.55804;1.45268;5104.2;5841.52;
112;0.181452;4586.97;10982;14;0.365228;0.339033;5104.2;5841.52;
220;1.75346;4250;21505.2;14;1.53541;1.43277;5104.2;5841.52;
127;0.354842;5059.18;17449.8;14;0.697602;0.653443;5104.2;5841.52;
19;0.041747;4935.5;15292.8;14;0.568778;0.533509;5104.2;5841.52;
321;1.74553;4429.36;17630.1;14;1.34432;1.26018;5104.2;5841.52;
23;0.048619;4806.9;16445.9;14;0.364829;0.336496;5104.2;5841.52;
17;0.101217;3970.85;15841.9;14;0.866752;0.793645;5104.2;5841.52;
27;0.097255;4500;18774.2;14;0.605472;0.566437;5104.2;5841.52;
132;0.233392;4320.39;18930.8;14;0.347038;0.320113;5104.2;5841.52;
464;3.97555;4739.88;12740.4;14;1.55838;1.44047;5104.2;5841.52;
417;0.892831;4000;20783.2;14;0.492938;0.460112;5104.2;5841.52;
73;0.571554;4793.62;13986.3;14;1.72198;1.59654;5104.2;5841.52;
176;0.431514;4810.98;21968.2;14;0.542057;0.504679;5104.2;5841.52;
29;0.274879;4241.78;21266.8;14;1.65195;1.53154;5104.2;5841.52;
357;0.926787;4785.46;17442.5;14;0.681789;0.635332;5104.2;5841.52;
461;0.895445;5582.21;11042.8;14;0.424491;0.37852;5104.2;5841.52;
35;0.181611;5297.46;15443.5;14;0.873307;0.81573;5104.2;5841.52;
100;0.262367;5050.64;17770.9;14;0.538856;0.501091;5104.2;5841.52;
269;0.960475;5168.81;13952.3;14;0.651645;0.605453;5104.2;5841.52;
125;0.241807;4607.72;18896.8;14;0.465772;0.422705;5104.2;5841.52;
287;0.710191;4941.13;15964.9;14;0.474747;0.439572;5104.2;5841.52;
257;0.524748;4911.44;12270.1;14;0.344082;0.317848;5104.2;5841.52;
35;0.08747;5156.85;13804.6;14;0.476127;0.441068;5104.2;5841.52;
76;0.330843;4068.11;21975.7;14;0.886543;0.81418;5104.2;5841.52;
454;1.68875;4141.52;20230.5;14;0.704975;0.655165;5104.2;5841.52;
21;0.048835;4751.42;14211.3;14;0.428312;0.398503;5104.2;5841.52;
809;3.39322;4649.91;21303.7;14;0.833522;0.767972;5104.2;5841.52;
33;0.05999;5014.01;17734.6;14;0.35327;0.322566;5104.2;5841.52;
240;1.99273;5283.51;13986.3;14;1.49965;1.39732;5104.2;5841.52;
301;0.56323;5052.77;9594.24;14;0.378265;0.349687;5104.2;5841.52;
263;0.770791;5381.02;6989.44;14;0.629161;0.584377;5104.2;5841.52;
35;0.30998;4711.9;13612.8;14;1.54036;1.43857;5104.2;5841.52;
31;0.074924;4943.46;13863;14;0.452396;0.420901;5104.2;5841.52;
28;0.117933;4941.05;15514.2;14;0.694833;0.646152;5104.2;5841.52;
552;1.05438;5425.08;13851.2;14;0.374143;0.347257;5104.2;5841.52;
22;0.195884;4701.9;11587.2;14;1.14634;1.07214;5104.2;5841.52;
29;0.058982;4375.13;17677.7;14;0.375331;0.347082;5104.2;5841.52;
218;1.59482;5619.77;13209.4;14;2.25173;2.1433;5104.2;5841.52;
24;0.056519;4906.16;15319.6;14;0.43458;0.406501;5104.2;5841.52;
246;1.56922;4236.17;11592.3;14;1.37998;1.28046;5104.2;5841.52;
126;0.89077;4578.59;12230.3;14;1.65578;1.55314;5104.2;5841.52;
566;1.03777;4551.56;16437.9;14;0.347029;0.32125;5104.2;5841.52;
143;0.752693;5233.27;14927.2;14;1.03372;0.965014;5104.2;5841.52;
177;0.517157;4766.16;19559.5;14;0.625311;0.579031;5104.2;5841.52;
431;1.28662;4825.03;17407.8;14;0.611423;0.571188;5104.2;5841.52;
443;3.02021;5076.61;13401;14;1.54817;1.44177;5104.2;5841.52;
298;1.06052;4317.51;13059.7;14;0.735041;0.684824;5104.2;5841.52;
38;0.277343;4968.16;15854.8;14;1.61885;1.51393;5104.2;5841.52;
112;0.185116;4380.54;19280.5;14;0.348142;0.321402;5104.2;5841.52;
182;0.482458;4500;18978.2;14;0.821068;0.778058;5104.2;5841.52;
144;0.551905;4825.29;19136.5;14;0.67922;0.630544;5104.2;5841.52;
580;1.28229;5330.63;8913.81;14;0.344361;0.316982;5104.2;5841.52;
222;0.608288;4444.95;21780;14;0.547847;0.508586;5104.2;5841.52;
25;0.096044;4356.09;14447.6;14;0.345142;0.318076;5104.2;5841.52;
128;0.21446;4830.03;15536;14;0.368959;0.342946;5104.2;5841.52;
102;0.54958;5016.26;11851.7;14;1.17561;1.09247;5104.2;5841.52;
218;1.13279;5275.06;14268.4;14;1.04482;0.972234;5104.2;5841.52;
26;0.069094;4885.89;11928.9;14;0.397561;0.367861;5104.2;5841.52;
22;0.107965;4126.45;15313;14;0.796794;0.722304;5104.2;5841.52;
556;1.62436;5113.08;11802.4;14;0.55966;0.522098;5104.2;5841.52;
24;0.136711;4899.91;14104.1;14;0.800904;0.746252;5104.2;5841.52;
24;0.046952;4537.6;20467.1;14;0.340517;0.314149;5104.2;5841.52;
589;1.04175;4312.24;22357;14;0.384266;0.341471;5104.2;5841.52;
146;0.466273;4775.81;19240;14;0.786065;0.735555;5104.2;5841.52;
141;0.253351;4847;20261.8;14;0.398596;0.371747;5104.2;5841.52;
202;1.25459;4463.49;15654.1;14;1.31223;1.22627;5104.2;5841.52;
407;4.74462;4501.39;15295.6;14;1.59466;1.44706;5104.2;5841.52;
527;1.38287;4019.24;19838.5;14;0.547899;0.510482;5104.2;5841.52;
574;1.04767;4774.86;8450.19;14;0.362926;0.337235;5104.2;5841.52;
88;0.49174;4954.82;13642.9;14;1.07781;1.0057;5104.2;5841.52;
818;1.78645;4349.22;18193.2;14;0.342695;0.317046;5104.2;5841.52;
634;5.77236;4166.6;15689.1;14;1.52772;1.4206;5104.2;5841.52;
296;0.498111;6245.63;8410.78;14;0.419697;0.392383;5104.2;5841.52;
26;0.251483;4642.51;11421.9;14;1.53744;1.42305;5104.2;5841.52;
151;0.266951;5305.76;13184.8;14;0.347576;0.31755;5104.2;5841.52;
458;1.25399;4250;23493.4;14;0.560232;0.519638;5104.2;5841.52;
300;2.40178;4428.17;16698.3;14;1.50127;1.39716;5104.2;5841.52;
143;0.557876;4044.49;16889.2;14;0.864857;0.805421;5104.2;5841.52;
52;0.081146;5077.58;13325.7;14;0.354036;0.326479;5104.2;5841.52;
109;0.263505;5310.21;12232.7;14;0.48803;0.441148;5104.2;5841.52;
615;5.10456;4105.68;16679.9;14;1.67937;1.57761;5104.2;5841.52;
379;0.790082;4779.8;16806.5;14;0.42235;0.390906;5104.2;5841.52;
24;0.067248;4500;19124.6;14;0.476624;0.440596;5104.2;5841.52;
99;0.167919;5405.26;14109.6;14;0.391927;0.364709;5104.2;5841.52;
76;0.580694;5266.67;15487;14;1.69551;1.58584;5104.2;5841.52;
210;0.901874;4072.03;19693.1;14;0.901926;0.840383;5104.2;5841.52;
90;0.156452;5356.14;15440.7;14;0.370541;0.326843;5104.2;5841.52;
31;0.097753;4098.77;15128.4;14;0.47522;0.440508;5104.2;5841.52;
32;0.241064;4346.06;9479.52;14;1.50129;1.39735;5104.2;5841.52;
680;5.60515;4510.58;16198.4;14;1.55468;1.45089;5104.2;5841.52;
135;0.362934;4690.5;15441.5;14;0.572816;0.531068;5104.2;5841.52;
24;0.054016;5007;13255.5;14;0.344478;0.31743;5104.2;5841.52;
20;0.069508;4926.32;12556.9;14;0.563567;0.509152;5104.2;5841.52;
