ComputationalTime;PathLength;TimesRecalculated;StartGoalTime;Colisions
5.46561;4000;33;4.90074;1
5.3791;4250;37;6.39901;2
6.08444;3750;30;6.24926;3
8.53903;3896.17;34;6.50076;2
7.28409;4250;30;5.45005;0
5.03481;4500;20;5.69997;2
7.20627;5078.96;40;5.59997;2
1.66417;4000;14;5.05067;3
4.70757;4250;35;4.84979;1
7.36533;4250;38;6.04988;2
9.17766;4250;41;5.69951;4
9.44474;4500;24;5.69985;3
6.87742;4068.16;30;7.09985;2
9.38097;4250;37;5.60062;4
6.84287;4629.07;35;5.94966;1
5.80975;4369.72;34;5.65083;0
4.114;4250;37;5.4003;1
8.55791;4500;55;6.5505;5
7.73274;4250;40;6.44994;2
3.19815;4862.2;24;5.54998;1
7.3319;4465.85;33;5.14953;2
5.47929;4334.56;34;6.10028;2
4.80241;4250;22;5.49979;1
4.85914;4000;35;5.54975;2
3.86561;4447.19;41;5.19948;3
4.092;4000;19;4.59988;2
3.17709;4500;24;5.25055;4
4.70642;4591.73;31;6.54956;2
9.35866;4250;41;6.64993;5
10.7323;4500;39;7.35018;4
10.5638;4414.38;36;6.39924;4
3.13478;4307.41;31;5.20059;1
8.73429;4709;35;6.05006;4
9.02986;5285.87;45;6.59996;0
5.72701;4500;41;6.35027;1
6.28498;4500;36;5.60019;3
9.62013;4250;41;6.00017;2
7.15337;4255.26;41;6.65052;2
9.51704;4000;47;5.80073;2
1.62944;4202.37;10;4.69973;0
5.0824;5325.25;21;6.70098;3
5.34998;4250;31;5.49955;1
3.00606;4797.36;24;4.49953;2
1.26216;4500;20;6.05066;1
17.2806;3999.16;61;6.30043;2
3.78922;5139.4;22;6.39975;2
3.41794;4118.98;31;5.75018;2
4.65874;4658.48;20;4.5494;0
5.5006;4480.92;23;5.50041;0
8.57334;5077.57;39;5.84925;3
5.13728;4440.4;31;6.05012;2
8.62265;4709.19;33;5.74992;2
2.93618;4846.48;31;5.30019;1
8.19907;4500;49;6.2002;2
11.089;4532.63;57;8.40009;3
2.575;4250;25;4.70008;1
13.9926;4887.93;57;6.44989;4
10.5276;4754.71;40;6.89995;2
6.54011;5011.95;27;6.30002;2
6.38988;4250;38;6.00054;4
10.015;4250;37;5.39997;1
2.64711;4946.53;19;5.20014;1
5.03381;4250;36;5.9;4
9.71707;4430.62;40;6.34921;5
10.6698;4250;59;7.9002;6
7.48346;4610.19;30;5.65039;2
3.43462;4492.32;21;5.75014;1
10.9798;4369.11;48;5.80056;2
1.75298;4683.06;14;4.80032;1
7.00989;4250;36;5.45001;1
7.35444;4780.57;24;5.39955;1
4.24662;4803.41;25;5.45015;1
5.94731;4250;29;5.69926;2
4.98042;4238.81;28;5.55021;2
6.78006;4881.57;44;5.64913;1
5.58645;4250;35;5.84938;3
7.10907;4330.31;29;5.49979;2
9.26467;4436.77;38;5.14968;0
10.3719;5068.86;42;8.10058;5
10.0196;4285.02;38;5.85014;4
5.37893;4719.2;31;6.20029;3
5.02927;4250;29;6.44941;4
4.0095;4500;23;5.55;1
4.98827;5436.98;27;5.69963;1
10.6754;4792.56;36;5.54985;2
8.82484;4250;32;6.04932;2
7.18962;4191.59;27;5.80005;0
2.28956;4500;21;5.09985;1
5.94632;4448.86;18;5.64979;2
3.89618;5161.67;22;4.85074;1
8.80903;4330.3;27;6.40037;2
3.76664;4499.97;24;5.10073;0
6.85105;4250;33;6.60001;5
3.75365;4000;26;5.20049;3
9.87794;4809.65;35;5.24958;3
13.2514;4000;39;6.09991;3
9.10253;4250;50;6.59995;4
8.49784;4750;33;6.10016;2
8.48979;4116.92;36;6.29935;2
8.57344;3962.33;45;6.25001;4
9.54728;4500;38;5.64982;2
3.70665;3893.59;34;5.20047;2
7.42171;4427.69;35;4.89962;1
3.95988;4418.35;19;5.20092;2
9.91624;4146.84;48;5.50023;2
9.87148;5262.92;46;5.79944;4
3.36732;4250;26;5.99955;1
12.1299;4836.55;47;7.70012;5
6.55437;4353.23;36;4.85083;0
6.34884;4317.25;43;5.29932;0
6.727;4470.76;31;6.34947;2
9.30926;4471.34;37;6.10004;3
5.78525;4505.57;25;5.80054;2
4.11364;4250;33;4.65002;1
4.72276;4733.11;31;5.4499;0
5.42844;4394.44;25;5.25008;1
6.70544;4766.21;34;6.19991;3
5.91282;4600.22;23;4.94953;2
8.36725;4250;34;5.75066;0
11.5073;4250;35;6.54988;5
11.6108;4250;43;6.69937;5
7.618;4203.68;35;5.89997;1
4.97364;4262.7;44;5.94956;0
5.90986;4281.11;26;5.20017;1
8.42922;4752.32;32;5.49969;1
8.53501;4865.77;43;5.55013;1
3.9309;4532.33;31;5.59983;2
15.6447;4186.55;45;5.79998;3
6.67315;4000;38;6.80066;2
7.95866;4250;33;6.65056;5
11.7288;4296.92;41;5.7997;3
11.0288;4000;41;6.55066;3
9.82656;4081.35;54;8.10055;3
5.05289;4250;24;6.14939;2
3.13642;4480.21;25;4.54953;0
6.40624;4886.49;30;6.44955;4
8.83889;4000;37;5.5499;2
9.47783;4000;57;6.9504;2
5.62232;4500;34;5.84976;2
2.98114;4588.48;17;5.24986;2
12.7306;4422.84;52;6.30007;3
8.63591;5310.71;40;6.14984;2
1.44582;4516.95;26;5.50017;2
9.45567;4583.63;35;5.95087;2
9.02233;4540.57;40;6.99993;3
10.8604;4373.61;46;6.10016;2
3.30309;4287.22;17;4.89998;1
9.18765;4483.48;39;5.90013;1
5.96528;5190.14;37;6.74965;3
1.36478;4085;22;5.2496;4
9.52944;4149.08;50;6.29964;2
4.11435;4493.31;15;5.84982;2
5.34543;4081.03;31;5.00079;1
8.68647;4532.53;36;6.09905;5
8.14031;4101.06;40;6.59962;5
7.35514;4250;30;5.94939;3
6.97466;4250;30;5.34952;1
3.86528;4546.2;24;6.10011;3
8.97686;5407.68;35;5.50066;2
4.48106;4250;33;5.25013;1
10.7788;4024.2;37;5.44982;2
10.4728;4935.38;50;6.25028;5
3.60975;4372.54;23;5.60015;2
12.0548;5115.02;34;5.39937;0
6.39416;4664.26;40;5.90074;1
4.91946;4474.22;29;5.15033;1
9.21305;5107.6;48;7.74985;3
16.0523;4250;52;6.35017;4
6.8722;4419.49;27;5.24992;0
7.25114;4671.63;29;6.79967;1
7.00528;4757.22;27;5.14933;1
6.72105;4332.6;32;5.1006;1
10.2317;5024.21;43;6.29998;2
7.84958;4250;35;5.89934;3
13.8184;4418.83;40;6.30099;2
5.85996;4000;23;5.94987;1
9.4809;4250;48;7.6997;6
11.7981;4124.12;53;6.40049;1
4.13533;4510.27;19;6.59976;4
8.45294;3750;39;7.25025;1
8.23306;4499.8;38;5.74964;1
3.81709;4250;34;5.64917;0
4.91397;4250;38;5.20005;1
8.39172;4318.11;25;6.19961;5
5.48781;3914.99;31;5.89927;2
2.16484;4744.51;18;5.7508;2
9.45723;4441.47;42;6.20076;1
2.93387;4819.89;34;4.90023;1
8.50227;4250;38;6.85025;4
6.74293;4461.46;29;5.6499;0
9.18608;3940.97;40;6.84979;4
5.5338;4250;26;5.44947;0
4.797;4250;27;5.15067;2
5.67717;4250;43;5.75095;2
12.8457;4434.72;47;7.00055;1
6.81664;4324.93;31;5.50013;2
9.99228;4455.64;45;6.79983;4
8.31504;4250;20;5.15056;0
7.91657;4250;41;5.60018;2
9.85551;4539.42;37;5.9995;2
