RRT | Iteracoes;TempoRRT;ComprimentoRRT;InimigosRRT;A* | Celulas;TempoA;Grafo;ComprimentoA;InimigosA;Leaf Size = 5;Numero maximo iteracoes = 2500;Distancia minima destino = 360[mm];Distancia avanco base = 360[mm];
477;0.954477;5620.76;10130.3;10;0.622998;0.601191;4872.49;1588.13;
525;1.11208;5249.81;16735;10;0.67715;0.652799;4872.49;1588.13;
1108;2.32167;5359.72;17079.9;10;0.500978;0.480727;4872.49;1588.13;
378;0.694696;4439.56;21163.5;10;0.541796;0.521119;4872.49;1588.13;
1678;5.16618;4634.93;26096.4;10;0.693284;0.665423;4872.49;1588.13;
1236;5.75007;5601.52;14542.6;10;1.12669;1.07875;4872.49;1588.13;
748;1.49488;5578.46;14544.5;10;0.476652;0.457232;4872.49;1588.13;
400;0.803157;4552.22;23956.1;10;0.575727;0.552583;4872.49;1588.13;
571;2.62806;5628.92;13661;10;1.13125;1.08291;4872.49;1588.13;
608;3.36782;5751.3;15120;10;1.4714;1.41079;4872.49;1588.13;
253;0.433839;5634.6;14314.9;10;0.5501;0.529727;4872.49;1588.13;
378;1.56271;4492.94;26163.5;10;1.17246;1.12631;4872.49;1588.13;
937;1.97494;6553.45;12499.6;10;0.550418;0.52853;4872.49;1588.13;
179;0.443947;5160.99;12472.6;10;0.792634;0.763171;4872.49;1588.13;
205;0.514042;4616.31;12731.9;10;0.682175;0.653531;4872.49;1588.13;
806;2.95298;5260.97;6688.51;10;0.899697;0.85966;4872.49;1588.13;
1129;12.393;5542.74;14824.1;10;3.39428;3.27454;4872.49;1588.13;
1355;2.67326;5771.99;14245.6;10;0.598572;0.577273;4872.49;1588.13;
562;4.53239;5563.11;14676.6;10;2.5189;2.42703;4872.49;1588.13;
839;1.9662;5531.78;14285;10;0.718991;0.691164;4872.49;1588.13;
1036;1.97803;6034.37;13341.1;10;0.495575;0.475273;4872.49;1588.13;
745;2.02582;5536.75;14913;10;0.66551;0.637978;4872.49;1588.13;
515;0.890111;4465.48;19616.6;10;0.474445;0.454103;4872.49;1588.13;
280;0.509869;5749.89;15493.4;10;0.58656;0.523647;4872.49;1588.13;
870;5.56225;4938.75;19727;10;1.8008;1.73759;4872.49;1588.13;
1472;2.88924;4349.14;30125.5;10;0.496838;0.476873;4872.49;1588.13;
613;1.38689;4320.53;27030.6;10;0.945754;0.914909;4872.49;1588.13;
460;4.6566;5833.9;13764;10;3.77185;3.63484;4872.49;1588.13;
175;0.289964;4434.76;24431.7;10;0.469181;0.448676;4872.49;1588.13;
447;0.788328;4895.47;18794;10;0.477755;0.457434;4872.49;1588.13;
380;3.07409;5624.55;10016.5;10;2.14217;2.05096;4872.49;1588.13;
725;2.08006;5577.55;4326.48;10;0.764903;0.732572;4872.49;1588.13;
278;0.739058;4839.99;10658.6;10;0.680007;0.650906;4872.49;1588.13;
437;5.64131;4922.73;21937.2;10;3.55069;3.42267;4872.49;1588.13;
174;0.353462;5317.41;8941.9;10;0.61582;0.588859;4872.49;1588.13;
676;5.49044;6025.31;13456.6;10;2.07057;1.98392;4872.49;1588.13;
406;0.718554;6610.28;12004.8;10;0.486565;0.466357;4872.49;1588.13;
563;1.96293;4413.76;29042.4;10;0.915692;0.87701;4872.49;1588.13;
1082;2.23085;6084.07;13785.8;10;0.479862;0.459368;4872.49;1588.13;
384;0.69204;4788.65;18200.9;10;0.481441;0.460076;4872.49;1588.13;
755;3.55167;7275.04;5599.02;10;1.83589;1.77907;4872.49;1588.13;
320;0.705078;5062.47;19327.3;10;0.605191;0.579339;4872.49;1588.13;
841;6.70667;5288.23;15389;10;2.26851;2.18111;4872.49;1588.13;
349;0.666851;5765.92;9769.69;10;0.471426;0.451036;4872.49;1588.13;
553;1.06454;5644.06;9728.53;10;0.485922;0.464206;4872.49;1588.13;
687;1.53165;5044.53;17957.9;10;0.579512;0.555706;4872.49;1588.13;
1124;2.32425;5787.61;14124.5;10;0.493023;0.472028;4872.49;1588.13;
844;1.6417;5813.12;13103.7;10;0.519049;0.497928;4872.49;1588.13;
446;2.04944;4466.95;27166.6;10;1.44877;1.38676;4872.49;1588.13;
973;5.20381;5184;16589.5;10;1.20391;1.14272;4872.49;1588.13;
349;1.72052;5421.49;11706.9;10;1.63524;1.55709;4872.49;1588.13;
296;0.525954;4394.83;27059.4;10;0.508444;0.487645;4872.49;1588.13;
931;1.74728;5752.25;24958;10;0.476836;0.456284;4872.49;1588.13;
383;2.08827;4516.95;22145;10;2.06305;2.00004;4872.49;1588.13;
238;0.394997;4111.6;27631.3;10;0.480599;0.459719;4872.49;1588.13;
1321;6.46532;6330.82;12071.4;10;1.42425;1.37587;4872.49;1588.13;
884;1.92388;5387.96;14996.1;10;0.538541;0.515906;4872.49;1588.13;
425;0.745642;5370.58;15158.5;10;0.481848;0.460185;4872.49;1588.13;
393;3.94111;5589.2;5782.89;10;2.16657;2.08107;4872.49;1588.13;
1899;3.90783;4390.31;27736.3;10;0.51915;0.496609;4872.49;1588.13;
884;2.94034;5575.86;14814.3;10;0.938869;0.899992;4872.49;1588.13;
400;0.810414;5347.77;15019.4;10;0.542076;0.519577;4872.49;1588.13;
940;2.55277;5599;14432.5;10;0.759337;0.726924;4872.49;1588.13;
451;2.5753;4563.95;25437.2;10;1.58798;1.5207;4872.49;1588.13;
508;4.51705;5502.8;15672.3;10;2.07388;1.99057;4872.49;1588.13;
816;3.22444;4837.67;16425;10;1.19745;1.1461;4872.49;1588.13;
690;1.43438;4485.55;29313.6;10;0.531082;0.508247;4872.49;1588.13;
540;1.1516;4431.32;23375.8;10;0.540738;0.518414;4872.49;1588.13;
194;0.744139;5399.6;14898.8;10;1.10918;1.06083;4872.49;1588.13;
1252;2.54192;6514.25;12564;10;0.479325;0.459137;4872.49;1588.13;
463;4.15601;5547.64;14514.3;10;3.16288;3.07402;4872.49;1588.13;
270;0.593267;4478.47;20831.5;10;0.577233;0.552785;4872.49;1588.13;
426;4.0376;6501.27;5641.83;10;2.35639;2.23018;4872.49;1588.13;
784;3.47656;6014.04;6576.29;10;1.19205;1.14267;4872.49;1588.13;
867;1.58952;5530.31;14897.6;10;0.469631;0.447796;4872.49;1588.13;
534;4.2062;4420.41;18637.3;10;2.12518;2.03005;4872.49;1588.13;
1999;4.21597;4566.45;16167.4;10;0.504427;0.484229;4872.49;1588.13;
313;0.944317;5367.48;14243;10;0.770464;0.7374;4872.49;1588.13;
729;5.78237;6034.43;13409.3;10;2.82365;2.72237;4872.49;1588.13;
214;0.548512;5149.67;16281.1;10;0.750157;0.720781;4872.49;1588.13;
1281;5.4748;4807.44;20178.1;10;1.20896;1.16248;4872.49;1588.13;
882;3.27394;5807.55;14805.5;10;1.30761;1.2376;4872.49;1588.13;
417;0.753099;4988.22;16216.7;10;0.575251;0.537254;4872.49;1588.13;
253;2.92153;4911.55;19583.2;10;3.34732;3.2247;4872.49;1588.13;
1115;2.27809;6538.78;4791.63;10;0.471091;0.451509;4872.49;1588.13;
195;0.566217;4968.33;16595.8;10;0.829208;0.796251;4872.49;1588.13;
651;2.08546;6049.1;13311.1;10;1.05999;1.01032;4872.49;1588.13;
496;6.1829;5846.78;14557.5;10;3.10794;2.97691;4872.49;1588.13;
497;0.955197;5509.04;15072.6;10;0.518876;0.496344;4872.49;1588.13;
1199;2.77291;5408.74;6453.65;10;0.600037;0.557229;4872.49;1588.13;
808;1.67271;5616.64;14376.7;10;0.580799;0.559219;4872.49;1588.13;
824;2.50161;5812.79;14791.9;10;0.804226;0.770625;4872.49;1588.13;
211;0.361594;5367.84;14392.6;10;0.472235;0.451131;4872.49;1588.13;
339;0.597976;5775.35;14358.3;10;0.499811;0.458627;4872.49;1588.13;
134;0.242711;4362.58;29238.7;10;0.51959;0.478932;4872.49;1588.13;
358;0.638652;5357.26;15030.9;10;0.481219;0.460278;4872.49;1588.13;
724;6.04482;4882.77;18994.2;10;2.08503;1.99813;4872.49;1588.13;
171;0.365699;5371.84;15038.1;10;0.588664;0.563081;4872.49;1588.13;
1699;3.50302;5869.61;13634.7;10;0.482843;0.460089;4872.49;1588.13;
211;0.367134;4429.17;28093.4;10;0.488895;0.467361;4872.49;1588.13;
410;0.958666;5528.78;15013.3;10;0.615644;0.59017;4872.49;1588.13;
858;3.34818;5392.9;14974.7;10;1.1269;1.07895;4872.49;1588.13;
257;0.415551;4619.5;24943.3;10;0.53012;0.509883;4872.49;1588.13;
806;5.59461;5260.17;14571.1;10;2.14428;2.05529;4872.49;1588.13;
638;1.6439;5306.15;15094.7;10;0.677327;0.648944;4872.49;1588.13;
1252;5.42711;5999.47;15907.7;10;1.10187;1.05615;4872.49;1588.13;
855;1.5832;5621.56;11182.3;10;0.555576;0.533348;4872.49;1588.13;
740;6.76438;6110.4;12840.9;10;2.14457;2.0573;4872.49;1588.13;
854;3.55986;5847.84;6274.96;10;1.17484;1.12633;4872.49;1588.13;
427;0.740728;5386.41;27658.7;10;0.514799;0.491529;4872.49;1588.13;
1345;4.60952;5750.07;15611.5;10;0.763732;0.730027;4872.49;1588.13;
552;5.34126;5750.37;14898.7;10;2.68042;2.57402;4872.49;1588.13;
468;1.04632;5799.57;8810.58;10;0.5794;0.55417;4872.49;1588.13;
1055;1.9926;4359.55;23314.8;10;0.478647;0.448091;4872.49;1588.13;
368;3.5227;5762.52;14424.3;10;2.20398;2.09152;4872.49;1588.13;
211;1.17584;4471.41;26867.9;10;1.61987;1.55367;4872.49;1588.13;
219;0.477657;4617.5;22745.4;10;0.597943;0.571044;4872.49;1588.13;
235;1.70985;4492.41;27963.1;10;1.56753;1.5037;4872.49;1588.13;
266;1.16505;5516.44;15255.9;10;1.25415;1.20594;4872.49;1588.13;
895;2.54226;6037.14;14407.9;10;0.746197;0.716852;4872.49;1588.13;
824;1.60719;6135.56;12753.5;10;0.47823;0.457706;4872.49;1588.13;
480;0.999477;5558.9;14575.1;10;0.73142;0.705078;4872.49;1588.13;
883;1.9043;5547.93;14802.1;10;0.5588;0.535531;4872.49;1588.13;
656;1.42644;5165.49;16490.2;10;0.554402;0.530211;4872.49;1588.13;
795;4.5868;4420.09;28360.9;10;1.77182;1.70301;4872.49;1588.13;
862;3.46196;5817.54;13728.5;10;1.06544;1.012;4872.49;1588.13;
408;0.907788;5389.33;15078.6;10;0.621549;0.595535;4872.49;1588.13;
855;7.6574;5112.6;12593.2;10;2.17704;2.08812;4872.49;1588.13;
212;0.401099;4287.36;27334.2;10;0.516285;0.493925;4872.49;1588.13;
257;0.80498;4393.9;26820.6;10;0.921001;0.882919;4872.49;1588.13;
416;0.738325;4809.58;9587.32;10;0.482749;0.461094;4872.49;1588.13;
1033;1.98907;6065.68;13138.3;10;0.47942;0.458966;4872.49;1588.13;
300;1.31227;4894.43;5449.43;10;1.11337;1.06556;4872.49;1588.13;
564;2.7605;6100.3;5585.46;10;1.13691;1.08957;4872.49;1588.13;
393;3.55091;5095.79;8535.63;10;2.0921;2.00684;4872.49;1588.13;
395;0.778221;5860.32;13765.7;10;0.538732;0.516409;4872.49;1588.13;
411;1.77015;5341.12;8132.73;10;1.15591;1.09553;4872.49;1588.13;
385;0.66545;4043.89;27570;10;0.507599;0.486835;4872.49;1588.13;
912;3.89023;5555.8;14751.7;10;1.11067;1.0637;4872.49;1588.13;
223;0.954894;5210.58;14851;10;1.18571;1.13668;4872.49;1588.13;
472;0.812168;4332.74;30014.7;10;0.480726;0.458889;4872.49;1588.13;
771;6.19524;6020.23;13430.8;10;3.2155;3.11512;4872.49;1588.13;
454;1.25114;5753.14;14737.1;10;0.739683;0.71013;4872.49;1588.13;
1332;9.55613;4349.73;22518.7;10;2.54133;2.43531;4872.49;1588.13;
187;0.474025;5049.36;3217.52;10;0.719363;0.689204;4872.49;1588.13;
377;1.36387;6032.9;13434.8;10;1.03846;0.998828;4872.49;1588.13;
655;2.46605;5278.46;5388.78;10;1.21108;1.16209;4872.49;1588.13;
769;1.37908;4384.18;27304.5;10;0.49995;0.476633;4872.49;1588.13;
1072;4.6527;5266.77;15522.9;10;1.33177;1.2732;4872.49;1588.13;
742;3.90195;5150.2;13421;10;1.53813;1.46077;4872.49;1588.13;
342;1.0394;5373.14;15069.9;10;0.539598;0.515697;4872.49;1588.13;
345;2.06318;4459.33;28554.9;10;1.50061;1.43871;4872.49;1588.13;
836;1.54408;5800.28;14001.9;10;0.471481;0.450735;4872.49;1588.13;
778;1.56802;5318.98;15295.7;10;0.520003;0.496161;4872.49;1588.13;
1205;7.87489;5615.53;14363.5;10;1.83137;1.76718;4872.49;1588.13;
303;0.926592;5763.93;14116.8;10;0.800078;0.765049;4872.49;1588.13;
1271;2.55289;5319.97;13390.5;10;0.484673;0.462727;4872.49;1588.13;
1392;13.3474;5368.02;15065;10;2.18148;2.09112;4872.49;1588.13;
329;0.917583;4773.3;15238.9;10;0.762013;0.727703;4872.49;1588.13;
427;2.35996;5278.19;16088.3;10;1.58322;1.51703;4872.49;1588.13;
932;2.24317;4427.66;28855.6;10;0.59968;0.575004;4872.49;1588.13;
512;6.2928;4611.62;4682.48;10;3.3617;3.23892;4872.49;1588.13;
200;0.637013;4855.23;23605;10;0.932906;0.894432;4872.49;1588.13;
444;4.22943;5320.57;15110.8;10;3.56138;3.43713;4872.49;1588.13;
725;6.2365;5588.17;14510.7;10;2.25248;2.16496;4872.49;1588.13;
1156;2.58633;5537.01;14799.7;10;0.504205;0.482706;4872.49;1588.13;
529;4.58419;5257.98;15938.4;10;2.64738;2.54923;4872.49;1588.13;
403;5.41095;6283.35;5853.19;10;3.58553;3.44114;4872.49;1588.13;
385;0.846942;5287.91;15333.4;10;0.623495;0.597143;4872.49;1588.13;
176;1.33017;4275.25;26600.5;10;2.12044;2.02661;4872.49;1588.13;
1196;2.40775;4768.57;16740.3;10;0.762999;0.731935;4872.49;1588.13;
453;4.03105;4026.22;26164.9;10;3.34431;3.22195;4872.49;1588.13;
247;1.95597;4850.4;16526.2;10;2.23519;2.15084;4872.49;1588.13;
1554;3.88776;5622.94;14355.4;10;0.492216;0.471238;4872.49;1588.13;
214;0.751239;4282.09;29859.2;10;0.789655;0.748467;4872.49;1588.13;
346;0.730459;5344.99;15318.8;10;0.602209;0.577101;4872.49;1588.13;
495;2.18807;4552.23;18899.1;10;1.19735;1.13174;4872.49;1588.13;
914;1.72126;5409.47;11759.9;10;0.520543;0.476686;4872.49;1588.13;
246;0.522802;5041.3;18287;10;0.620792;0.59445;4872.49;1588.13;
360;3.04738;5360.63;15131.2;10;2.41979;2.33144;4872.49;1588.13;
470;5.32173;4906.73;19869;10;2.0836;1.99861;4872.49;1588.13;
1479;3.05831;5003.96;18996.8;10;0.532452;0.509546;4872.49;1588.13;
770;2.02924;4685.95;26160.5;10;0.659273;0.630541;4872.49;1588.13;
607;1.14353;6103.55;12839.5;10;0.510066;0.48839;4872.49;1588.13;
144;0.255282;4834.01;13133.3;10;0.474305;0.452043;4872.49;1588.13;
1045;3.2754;5539.77;10747.9;10;0.688046;0.641529;4872.49;1588.13;
466;1.5844;4456.46;30196.8;10;0.914473;0.857886;4872.49;1588.13;
2060;8.71181;5308.67;16810.1;10;1.19292;1.14417;4872.49;1588.13;
1303;2.57912;6290.03;12544.8;10;0.491634;0.468577;4872.49;1588.13;
232;1.35063;5640.27;14205.9;10;1.76968;1.70383;4872.49;1588.13;
909;2.30121;5327.65;15941.9;10;0.515886;0.49342;4872.49;1588.13;
1186;2.80092;5613.3;14354.7;10;0.576785;0.552329;4872.49;1588.13;
1143;10.9052;4440.72;27973.4;10;2.35533;2.25828;4872.49;1588.13;
313;0.878012;4340.32;17138.6;10;0.684133;0.650419;4872.49;1588.13;
1237;4.49537;5855.01;13658.4;10;0.91707;0.878343;4872.49;1588.13;
970;6.28911;5462.8;14341.4;10;1.59337;1.52949;4872.49;1588.13;
505;1.48808;4627.52;19703.8;10;0.816151;0.781913;4872.49;1588.13;
1076;2.79539;4529.95;25818.3;10;0.614707;0.588509;4872.49;1588.13;
697;2.22973;4905.17;16304.1;10;0.7844;0.751309;4872.49;1588.13;
322;0.587152;7537.97;5696.82;10;0.504038;0.48325;4872.49;1588.13;
