RRT | Iteracoes;TempoRRT;ComprimentoRRT;InimigosRRT;A* | Celulas;TempoA;Grafo;ComprimentoA;InimigosA;Leaf Size = 5;Numero maximo iteracoes = 30000;Distancia minima destino = 360[mm];Distancia avanco base = 360[mm];
1683;7.46395;15256.2;7972.26;111;0.866535;0.613798;13342;4172.5;
1863;6.4961;14769.5;7919.16;111;0.58497;0.428977;13342;4172.5;
1529;3.51917;14747.3;3575.33;111;0.379325;0.25728;13342;4172.5;
666;1.46281;15198.9;3848.05;111;0.359329;0.254755;13342;4172.5;
1988;4.62457;14648.8;7569.15;111;0.364656;0.253126;13342;4172.5;
1570;14.5461;14296.6;7168.71;111;1.43407;1.02015;13342;4172.5;
1291;2.64959;14713.5;3706.33;111;0.429186;0.28655;13342;4172.5;
920;1.73848;14452;5069.32;111;0.374601;0.279978;13342;4172.5;
2748;6.12881;14825.4;3737.14;111;0.317612;0.224671;13342;4172.5;
1497;10.0793;14479.6;5229.03;111;1.50127;1.08445;13342;4172.5;
3086;6.68658;14730.9;6150.35;111;0.315709;0.222893;13342;4172.5;
2064;5.28174;14739.4;7699.76;111;0.428919;0.310041;13342;4172.5;
1633;16.3627;14391.4;3513.44;111;1.59114;1.11674;13342;4172.5;
1569;4.05597;14750;5132.57;111;0.403395;0.284767;13342;4172.5;
1192;9.8671;14301.5;6717.68;111;1.67385;1.18089;13342;4172.5;
2440;5.31576;14748.8;6835.82;111;0.370905;0.277691;13342;4172.5;
830;2.31905;14245.4;4803.65;111;0.459895;0.321782;13342;4172.5;
993;2.02977;15419.4;5380.37;111;0.331382;0.235674;13342;4172.5;
1681;13.9681;14825.6;4263.06;111;1.62019;1.1103;13342;4172.5;
1442;8.43102;14559.1;5946.79;111;1.07454;0.760986;13342;4172.5;
1241;3.66904;14552.4;6674.18;111;0.458734;0.322882;13342;4172.5;
1708;3.66604;14453.2;5965.22;111;0.328269;0.230732;13342;4172.5;
2184;4.88922;14713.2;4834.82;111;0.327647;0.232002;13342;4172.5;
2491;7.50376;14468.1;5076.44;111;0.472593;0.335035;13342;4172.5;
1370;3.54951;15225.7;6050.47;111;0.430739;0.31079;13342;4172.5;
1271;11.9622;14910.6;3684.97;111;1.46058;1.04464;13342;4172.5;
1523;3.80068;14587.6;3649.23;111;0.397853;0.273423;13342;4172.5;
1806;16.6179;14613.7;6117.88;111;1.43346;1.01587;13342;4172.5;
1826;4.18184;14084.1;6776.96;111;0.386068;0.282644;13342;4172.5;
1455;6.99288;14694.9;4542;111;1.06455;0.775032;13342;4172.5;
1509;14.668;14917.8;3735.55;111;1.61717;1.11974;13342;4172.5;
1283;3.01825;14681.9;7764.74;111;0.390622;0.275226;13342;4172.5;
1023;1.99142;14433.9;5442.79;111;0.318392;0.223498;13342;4172.5;
1837;3.72853;14744.2;8958.41;111;0.350037;0.256862;13342;4172.5;
1708;7.98057;15224.3;3606.16;111;0.756815;0.527046;13342;4172.5;
1951;19.8001;14617.1;4627.6;111;1.82863;1.41101;13342;4172.5;
1261;3.56071;14672;6885.89;111;0.735942;0.31475;13342;4172.5;
1018;10.0232;14517;6747.49;111;2.0752;1.60197;13342;4172.5;
1361;3.12086;14224.3;4477.28;111;0.317596;0.221986;13342;4172.5;
1557;3.09509;14535.7;5394.81;111;0.332979;0.240363;13342;4172.5;
1198;11.4643;14543.6;5516.78;111;1.70058;1.21712;13342;4172.5;
1116;2.25768;15039.8;3587.97;111;0.338683;0.245238;13342;4172.5;
1513;11.8551;14865.6;3670.04;111;1.51996;1.10222;13342;4172.5;
2255;7.65063;14460.5;6950.7;111;0.638086;0.46348;13342;4172.5;
844;1.65863;14487.4;5895.27;111;0.324884;0.229222;13342;4172.5;
1727;13.0389;15119.9;3584.3;111;2.18509;1.68823;13342;4172.5;
1927;4.03364;14773.5;4525.09;111;0.316306;0.223551;13342;4172.5;
1025;2.08531;14372.8;8549.55;111;0.345448;0.241513;13342;4172.5;
1461;8.87732;14480.5;5926.23;111;1.09819;0.781108;13342;4172.5;
1578;3.61404;15124.2;5559.28;111;0.399173;0.270498;13342;4172.5;
1635;3.83961;14159.1;3265.01;111;0.385469;0.270826;13342;4172.5;
1114;4.93191;14879.8;6781.81;111;0.632878;0.448449;13342;4172.5;
1887;3.85464;14775.2;6046.77;111;0.320176;0.225573;13342;4172.5;
2068;10.5601;14481.6;3497.99;111;0.984971;0.68467;13342;4172.5;
1277;2.57831;14429.2;6403.37;111;0.328927;0.218254;13342;4172.5;
1722;3.45824;14370.6;6923.08;111;0.365259;0.266313;13342;4172.5;
1587;6.05805;14529.5;6708.61;111;1.41493;0.996167;13342;4172.5;
1292;5.83612;14354.7;6358.63;111;0.883338;0.632517;13342;4172.5;
1653;3.37397;15314.8;5001.48;111;0.328272;0.234986;13342;4172.5;
924;6.78093;14395.4;5536.68;111;1.425;0.999213;13342;4172.5;
1620;3.32773;14791.1;7982.41;111;0.335691;0.229669;13342;4172.5;
1541;4.47569;14364.1;7360.18;111;0.437878;0.309014;13342;4172.5;
1771;3.60819;15003.8;3642.58;111;0.317173;0.223478;13342;4172.5;
1325;6.42509;14377.8;6811.17;111;1.36427;1.00463;13342;4172.5;
749;1.46591;14240.6;5594.52;111;0.330798;0.225864;13342;4172.5;
1427;11.7647;14605.1;8286.18;111;2.20877;1.57885;13342;4172.5;
2630;12.0843;14295.4;5489.67;111;0.97191;0.731554;13342;4172.5;
857;11.3419;14472.6;6948.36;111;2.17858;1.51611;13342;4172.5;
2223;5.45287;14755.2;7400.13;111;0.435881;0.30378;13342;4172.5;
1289;9.92167;14820.8;3614.31;111;1.56006;1.11101;13342;4172.5;
1722;7.65891;14604.1;4714.87;111;0.951364;0.702841;13342;4172.5;
1401;2.82407;14602.9;8612.97;111;0.333668;0.238617;13342;4172.5;
1600;6.41257;14790.4;5118.05;111;0.750499;0.526937;13342;4172.5;
1197;2.97178;14619;5106.16;111;0.399912;0.281728;13342;4172.5;
839;5.91621;14843.6;3758.36;111;1.61793;1.10874;13342;4172.5;
578;1.12573;14385.6;6755.99;111;0.355853;0.244083;13342;4172.5;
1447;4.07231;14310.3;5085.83;111;0.441796;0.312186;13342;4172.5;
1237;2.65276;14693.3;3724;111;0.397971;0.301849;13342;4172.5;
1452;7.29064;14644.2;5869.56;111;1.79889;1.4773;13342;4172.5;
718;2.50777;14395.6;7455.23;111;0.478078;0.340868;13342;4172.5;
687;4.36221;14965.3;6227.46;111;1.43898;0.98945;13342;4172.5;
467;3.57566;14351.1;6292.61;111;1.40618;0.987609;13342;4172.5;
2942;6.39748;14652.1;6202.1;111;0.324636;0.22378;13342;4172.5;
1235;5.68996;14469.9;7942.04;111;0.556956;0.384415;13342;4172.5;
1272;3.72365;14781.9;3622.52;111;0.470966;0.330174;13342;4172.5;
1884;3.96972;15103;3824.11;111;0.362567;0.229464;13342;4172.5;
836;2.29972;15049.6;3651.8;111;0.460807;0.329411;13342;4172.5;
1025;1.95724;14937.6;7629.66;111;0.341627;0.246828;13342;4172.5;
1610;7.14744;14507.5;5130.1;111;0.795173;0.560278;13342;4172.5;
2216;18.8794;14529.3;7599.64;111;1.75634;1.22657;13342;4172.5;
1436;2.91779;14523;5141.59;111;0.318374;0.222875;13342;4172.5;
3263;14.3793;15293.8;5912.93;111;0.797292;0.560681;13342;4172.5;
1257;3.2497;14358.1;4746.86;111;0.398784;0.280613;13342;4172.5;
1438;4.10493;14595.3;5936.43;111;0.460391;0.325687;13342;4172.5;
1070;9.86702;14482.6;5437.46;111;1.5755;1.11024;13342;4172.5;
1959;3.98269;14422.7;3840.42;111;0.331152;0.237227;13342;4172.5;
1955;4.07127;14606.1;3291.86;111;0.351442;0.25468;13342;4172.5;
948;1.82711;14615.9;4145.42;111;0.351294;0.258252;13342;4172.5;
1005;3.29501;14144.7;3390.03;111;0.649039;0.454445;13342;4172.5;
1415;5.09488;14516;5682.78;111;0.653701;0.464714;13342;4172.5;
1305;13.6287;14501.1;7240.86;111;1.64321;1.11088;13342;4172.5;
4235;10.7186;14400.6;6349.27;111;0.446163;0.317923;13342;4172.5;
1422;5.05823;14772.7;3648.92;111;0.617083;0.429137;13342;4172.5;
1693;3.48054;14711.9;5026.83;111;0.341118;0.239645;13342;4172.5;
1594;4.93453;14650.2;5933.64;111;0.536762;0.377531;13342;4172.5;
1558;3.87238;14470.7;6603.81;111;0.436212;0.3105;13342;4172.5;
1332;2.73769;15013.1;7147.75;111;0.351093;0.23713;13342;4172.5;
962;9.20236;14895.5;4131.68;111;1.63587;1.21428;13342;4172.5;
1131;5.64124;14554.3;3768.49;111;0.826984;0.579162;13342;4172.5;
2725;5.90587;14418.5;7310.76;111;0.335825;0.241656;13342;4172.5;
1170;4.58279;14588.3;7279.65;111;0.629109;0.447641;13342;4172.5;
1486;2.97119;14586.2;3584.92;111;0.344409;0.22383;13342;4172.5;
2403;14.9131;14654.3;4536.34;111;1.41386;0.992764;13342;4172.5;
1336;4.59044;14372.7;3761.57;111;0.534689;0.375708;13342;4172.5;
2083;4.22718;14618.9;3485.55;111;0.333281;0.237685;13342;4172.5;
1233;8.66576;14489.9;3628.34;111;1.10596;0.789217;13342;4172.5;
1145;2.38955;14444.5;5247.83;111;0.345318;0.248178;13342;4172.5;
1180;5.56622;14439.5;6760.45;111;0.802515;0.561752;13342;4172.5;
1630;3.26565;14575.5;4650.02;111;0.318034;0.223231;13342;4172.5;
2050;5.18235;14652.4;3553.15;111;0.437398;0.31501;13342;4172.5;
1535;3.92046;14771.7;4532.4;111;0.438655;0.313417;13342;4172.5;
2343;6.55727;14475.1;6540.31;111;0.417792;0.291822;13342;4172.5;
2479;8.72363;14277.4;5985.37;111;0.540238;0.380077;13342;4172.5;
1159;11.5541;14575.1;5885.97;111;1.51239;1.04484;13342;4172.5;
1717;7.13376;14473.6;6910.71;111;0.750052;0.533795;13342;4172.5;
2284;9.1846;14861.4;7214.99;111;0.644258;0.449281;13342;4172.5;
2279;6.38032;14792.4;9077.43;111;0.404838;0.282737;13342;4172.5;
1969;7.23235;14645.3;5667.28;111;0.610471;0.427336;13342;4172.5;
2097;4.91608;14532.9;7218.06;111;0.381449;0.272057;13342;4172.5;
1540;14.1817;14468.3;4395.18;111;1.46373;1.04281;13342;4172.5;
1368;2.91803;14632.9;5416.73;111;0.378866;0.280603;13342;4172.5;
1626;4.24004;14897.2;3785.64;111;0.437521;0.316143;13342;4172.5;
2150;5.73718;14615.7;6379.3;111;0.392102;0.273891;13342;4172.5;
1244;5.78219;14714.3;7013.25;111;0.835922;0.52818;13342;4172.5;
1569;3.20133;14377;5989.23;111;0.368865;0.273644;13342;4172.5;
1725;5.76594;14434;3222.6;111;0.744724;0.522379;13342;4172.5;
1299;5.30336;14586.2;7115.22;111;0.640481;0.449417;13342;4172.5;
2110;4.46434;14658.4;5047.54;111;0.438667;0.314576;13342;4172.5;
1478;5.09112;14405.1;5325.81;111;0.615233;0.428261;13342;4172.5;
1860;4.40009;14299.6;6695.1;111;0.389441;0.26135;13342;4172.5;
2101;11.7291;14234.9;5100.32;111;1.58986;1.25891;13342;4172.5;
695;1.29578;14478.4;5836.9;111;0.366546;0.272117;13342;4172.5;
1391;2.86744;14813.2;7225.46;111;0.347429;0.23828;13342;4172.5;
2446;18.8139;14573.9;3528.06;111;1.41619;0.997857;13342;4172.5;
1910;4.29559;14599.3;4247.88;111;0.330932;0.235209;13342;4172.5;
2262;5.17646;14487.9;4656.8;111;0.373195;0.265265;13342;4172.5;
1332;3.48539;14583;6465.42;111;0.476768;0.342895;13342;4172.5;
1169;3.11357;14254.7;5323.83;111;0.480495;0.325997;13342;4172.5;
2188;5.23127;14380.2;4573.6;111;0.326724;0.224617;13342;4172.5;
1120;5.89391;14638.2;4130.73;111;1.01433;0.71548;13342;4172.5;
882;1.72536;14469.5;5428.28;111;0.316999;0.222753;13342;4172.5;
1777;4.94104;14426.7;5769.14;111;0.448538;0.314202;13342;4172.5;
935;4.44915;14483.1;6226.32;111;0.997019;0.695493;13342;4172.5;
732;1.7509;14665.4;9147.97;111;0.403353;0.283253;13342;4172.5;
1588;4.98257;15314.7;7117.47;111;0.538777;0.378003;13342;4172.5;
887;2.02865;14285.8;3604.75;111;0.40929;0.28519;13342;4172.5;
2332;16.3564;14631.9;3737.91;111;1.65239;1.16781;13342;4172.5;
1500;6.28286;14276.7;5678.55;111;0.847492;0.586603;13342;4172.5;
1211;6.60123;14764.6;3734.42;111;1.27585;1.0295;13342;4172.5;
1348;9.01812;14834.7;4603.01;111;1.54391;1.10685;13342;4172.5;
1627;6.5514;14415.6;6720.02;111;0.650652;0.453176;13342;4172.5;
2174;5.48107;14507;3581.52;111;0.371824;0.262789;13342;4172.5;
1863;6.38039;14477.1;6888.52;111;0.609812;0.427161;13342;4172.5;
2009;4.64509;14165.2;4999.55;111;0.383418;0.258813;13342;4172.5;
1622;3.39108;14512.3;5502.94;111;0.317763;0.222324;13342;4172.5;
2238;5.03715;14634.6;3566.46;111;0.322103;0.226467;13342;4172.5;
1343;2.75685;14812.9;9893.34;111;0.321505;0.225611;13342;4172.5;
1574;4.72685;15400.2;3551.4;111;0.522947;0.360225;13342;4172.5;
1056;2.05448;15340.4;4027.92;111;0.329577;0.231788;13342;4172.5;
2388;6.37878;14360.7;3498.41;111;0.41881;0.29713;13342;4172.5;
1597;13.9367;14871.1;3584.44;111;1.51506;1.0862;13342;4172.5;
722;1.38077;14386.7;5730.37;111;0.394094;0.297387;13342;4172.5;
1568;4.58492;14532.1;3746.64;111;0.466584;0.325603;13342;4172.5;
2004;8.4362;14401.4;3821.49;111;0.608454;0.427976;13342;4172.5;
1088;3.80124;14722.7;6536.22;111;0.574775;0.41339;13342;4172.5;
1406;2.91404;14386.9;7164.77;111;0.335689;0.23701;13342;4172.5;
1602;19.4376;14765.8;5316.61;111;1.47242;1.04995;13342;4172.5;
2164;5.93361;15018.8;4069.51;111;0.438489;0.307362;13342;4172.5;
1297;3.34836;14394.6;5168.26;111;0.402358;0.28293;13342;4172.5;
1334;12.1186;14501.7;5149.59;111;1.42841;1.00412;13342;4172.5;
2018;4.97224;14541.3;4605.92;111;0.366591;0.255552;13342;4172.5;
2584;6.64815;14473.7;6926.36;111;0.408148;0.290138;13342;4172.5;
1380;2.79417;14713.4;5616.42;111;0.346035;0.249651;13342;4172.5;
1631;11.1098;14546.3;3804.95;111;1.64661;1.16863;13342;4172.5;
1269;4.3471;14443.5;6886.84;111;0.583703;0.417989;13342;4172.5;
1330;3.02995;14475.4;6841.92;111;0.36075;0.251593;13342;4172.5;
1180;7.16253;14490.7;5406.49;111;1.1126;0.793955;13342;4172.5;
1469;4.33049;14723.2;4709.5;111;0.46468;0.323746;13342;4172.5;
2234;5.4589;14410.2;3235.28;111;0.371109;0.263496;13342;4172.5;
1038;1.95066;14281.8;3207.09;111;0.368008;0.256852;13342;4172.5;
1401;18.3383;14491.1;3939.82;111;2.53656;1.77134;13342;4172.5;
1993;12.5328;14720.4;3562.68;111;1.06052;0.743824;13342;4172.5;
1349;5.07803;14507.1;3724.83;111;0.841047;0.594157;13342;4172.5;
1773;3.78669;14632.7;6609.82;111;0.328657;0.224372;13342;4172.5;
1386;6.01674;14648.8;3591.71;111;0.764586;0.549439;13342;4172.5;
1709;10.6123;14455.3;6554.4;111;1.17239;0.815113;13342;4172.5;
1301;3.34933;14481;6615.12;111;0.408395;0.281897;13342;4172.5;
1142;3.50349;14672.1;3901.63;111;0.438653;0.328581;13342;4172.5;
1360;9.2541;14530.6;5284.22;111;1.67018;1.20524;13342;4172.5;
2072;6.81942;14718.3;5317.29;111;0.53831;0.375265;13342;4172.5;
